EESchema Schematic File Version 4
EELAYER 30 0
EELAYER END
$Descr A4 11693 8268
encoding utf-8
Sheet 1 17
Title ""
Date ""
Rev ""
Comp ""
Comment1 ""
Comment2 ""
Comment3 ""
Comment4 ""
$EndDescr
$Sheet
S 4000 1360 1660 1200
U 645E5844
F0 "Audio Input" 50
F1 "AudioInput.sch" 50
F2 "A+" I L 4000 1510 50 
F3 "A-" I L 4000 1580 50 
F4 "B+" I L 4000 1650 50 
F5 "B-" I L 4000 1720 50 
F6 "C+" I L 4000 1790 50 
F7 "C-" I L 4000 1860 50 
F8 "D+" I L 4000 1930 50 
F9 "D-" I L 4000 2000 50 
F10 "E+" I L 4000 2070 50 
F11 "E-" I L 4000 2140 50 
F12 "F+" I L 4000 2210 50 
F13 "F-" I L 4000 2280 50 
$EndSheet
$Sheet
S 6300 1340 1660 1200
U 645E5916
F0 "Audio Output" 50
F1 "AudioOutput.sch" 50
F2 "AMP+" O R 7960 1630 50 
F3 "AMP-" O R 7960 1930 50 
$EndSheet
$Sheet
S 4980 4670 1660 1200
U 645E5A31
F0 "Power" 50
F1 "Power.sch" 50
$EndSheet
$Sheet
S 4010 3010 1660 1200
U 645E59AC
F0 "Human Machine Interface" 50
F1 "HMI.sch" 50
$EndSheet
$Sheet
S 6210 3000 1660 1200
U 645E5A13
F0 "Microprocessor" 50
F1 "MCU.sch" 50
$EndSheet
$Comp
L Device:Battery BT?
U 1 1 645E5E12
P 6970 5240
F 0 "BT?" H 7080 5287 50  0001 L CNN
F 1 "USB Power Bank" H 7080 5240 50  0000 L CNN
F 2 "" V 6970 5300 50  0001 C CNN
F 3 "~" V 6970 5300 50  0001 C CNN
	1    6970 5240
	1    0    0    -1  
$EndComp
$Comp
L Device:L L?
U 1 1 645E71A0
P 2910 1340
F 0 "L?" H 2865 1293 50  0001 R CNN
F 1 "Coil A" H 2865 1340 50  0000 R CNN
F 2 "" H 2910 1340 50  0001 C CNN
F 3 "~" H 2910 1340 50  0001 C CNN
	1    2910 1340
	-1   0    0    1   
$EndComp
$Comp
L Device:L L?
U 1 1 645E7E8C
P 2910 1750
F 0 "L?" H 2865 1703 50  0001 R CNN
F 1 "Coil B" H 2864 1750 50  0000 R CNN
F 2 "" H 2910 1750 50  0001 C CNN
F 3 "~" H 2910 1750 50  0001 C CNN
	1    2910 1750
	-1   0    0    1   
$EndComp
$Comp
L Device:L L?
U 1 1 645EB975
P 2910 2160
F 0 "L?" H 2865 2113 50  0001 R CNN
F 1 "Coil C" H 2864 2160 50  0000 R CNN
F 2 "" H 2910 2160 50  0001 C CNN
F 3 "~" H 2910 2160 50  0001 C CNN
	1    2910 2160
	-1   0    0    1   
$EndComp
$Comp
L Device:L L?
U 1 1 645EB97B
P 2910 2600
F 0 "L?" H 2865 2553 50  0001 R CNN
F 1 "Coil D" H 2864 2600 50  0000 R CNN
F 2 "" H 2910 2600 50  0001 C CNN
F 3 "~" H 2910 2600 50  0001 C CNN
	1    2910 2600
	-1   0    0    1   
$EndComp
$Comp
L Device:L L?
U 1 1 645ECE0F
P 2910 3090
F 0 "L?" H 2865 3043 50  0001 R CNN
F 1 "Coil E" H 2864 3090 50  0000 R CNN
F 2 "" H 2910 3090 50  0001 C CNN
F 3 "~" H 2910 3090 50  0001 C CNN
	1    2910 3090
	-1   0    0    1   
$EndComp
$Comp
L Device:L L?
U 1 1 645ECE15
P 2910 3520
F 0 "L?" H 2865 3473 50  0001 R CNN
F 1 "Coil F" H 2865 3520 50  0000 R CNN
F 2 "" H 2910 3520 50  0001 C CNN
F 3 "~" H 2910 3520 50  0001 C CNN
	1    2910 3520
	-1   0    0    1   
$EndComp
Text GLabel 2910 1190 0    50   Input ~ 0
A+
Text GLabel 2910 1490 0    50   Input ~ 0
A-
Text GLabel 2910 1600 0    50   Input ~ 0
B+
Text GLabel 2910 1900 0    50   Input ~ 0
B-
Text GLabel 2910 2010 0    50   Input ~ 0
C+
Text GLabel 2910 2310 0    50   Input ~ 0
C-
Text GLabel 2910 2450 0    50   Input ~ 0
D+
Text GLabel 2910 2750 0    50   Input ~ 0
D-
Text GLabel 2910 2940 0    50   Input ~ 0
E+
Text GLabel 2910 3240 0    50   Input ~ 0
E-
Text GLabel 2910 3370 0    50   Input ~ 0
F+
Text GLabel 2910 3670 0    50   Input ~ 0
F-
Text GLabel 7960 1630 2    50   Input ~ 0
AMP+
Text GLabel 7960 1930 2    50   Input ~ 0
AMP-
Wire Wire Line
	2910 1190 3960 1190
Wire Wire Line
	3960 1190 3960 1510
Wire Wire Line
	3960 1510 4000 1510
Wire Wire Line
	2910 1490 3910 1490
Wire Wire Line
	3910 1490 3910 1580
Wire Wire Line
	3910 1580 4000 1580
Wire Wire Line
	2910 1600 3890 1600
Wire Wire Line
	3890 1600 3890 1650
Wire Wire Line
	3890 1650 4000 1650
Wire Wire Line
	4000 1720 3750 1720
Wire Wire Line
	3750 1720 3750 1900
Wire Wire Line
	3750 1900 2910 1900
Wire Wire Line
	2910 2010 3780 2010
Wire Wire Line
	3780 2010 3780 1790
Wire Wire Line
	3780 1790 4000 1790
Wire Wire Line
	4010 1860 3810 1860
Wire Wire Line
	3810 1860 3810 2310
Wire Wire Line
	3810 2310 2910 2310
Wire Wire Line
	2910 2450 3830 2450
Wire Wire Line
	3830 2450 3830 1930
Wire Wire Line
	3830 1930 4000 1930
Wire Wire Line
	4000 2000 3850 2000
Wire Wire Line
	3850 2000 3850 2750
Wire Wire Line
	3850 2750 2910 2750
Wire Wire Line
	2910 2940 3880 2940
Wire Wire Line
	3880 2940 3880 2070
Wire Wire Line
	3880 2070 4000 2070
Wire Wire Line
	4000 2140 3900 2140
Wire Wire Line
	3900 2140 3900 3240
Wire Wire Line
	3900 3240 2910 3240
Wire Wire Line
	2910 3370 3920 3370
Wire Wire Line
	3920 3370 3920 2210
Wire Wire Line
	3920 2210 4000 2210
Wire Wire Line
	4000 2280 3940 2280
Wire Wire Line
	3940 2280 3940 3670
Wire Wire Line
	3940 3670 2910 3670
$Comp
L power:GND #PWR?
U 1 1 64605D39
P 6970 5440
F 0 "#PWR?" H 6970 5190 50  0001 C CNN
F 1 "GND" H 6975 5264 50  0000 C CNN
F 2 "" H 6970 5440 50  0001 C CNN
F 3 "" H 6970 5440 50  0001 C CNN
	1    6970 5440
	1    0    0    -1  
$EndComp
$Comp
L power:+5V #PWR?
U 1 1 6460624E
P 6970 5040
F 0 "#PWR?" H 6970 4890 50  0001 C CNN
F 1 "+5V" H 6985 5216 50  0000 C CNN
F 2 "" H 6970 5040 50  0001 C CNN
F 3 "" H 6970 5040 50  0001 C CNN
	1    6970 5040
	1    0    0    -1  
$EndComp
Text HLabel 6640 5040 0    50   Input ~ 0
+5VIN
Wire Wire Line
	6640 5040 6970 5040
Connection ~ 6970 5040
$Comp
L power:GND #PWR?
U 1 1 64609F4B
P 6640 5440
F 0 "#PWR?" H 6640 5190 50  0001 C CNN
F 1 "GND" V 6645 5310 50  0000 R CNN
F 2 "" H 6640 5440 50  0001 C CNN
F 3 "" H 6640 5440 50  0001 C CNN
	1    6640 5440
	0    1    1    0   
$EndComp
Wire Wire Line
	6640 5440 6970 5440
Connection ~ 6970 5440
$EndSCHEMATC
