EESchema Schematic File Version 4
EELAYER 30 0
EELAYER END
$Descr A4 11693 8268
encoding utf-8
Sheet 5 17
Title ""
Date ""
Rev ""
Comp ""
Comment1 ""
Comment2 ""
Comment3 ""
Comment4 ""
$EndDescr
$Comp
L Switch:SW_SPST SW?
U 1 1 6464091C
P 4350 3210
AR Path="/645E5844/6460C3B5/6464091C" Ref="SW?"  Part="1" 
AR Path="/645E5844/6460C93D/6464091C" Ref="SW?"  Part="1" 
F 0 "SW?" H 4350 3450 50  0001 C CNN
F 1 "SW_SPST" H 4350 3356 50  0001 C CNN
F 2 "" H 4350 3210 50  0001 C CNN
F 3 "~" H 4350 3210 50  0001 C CNN
	1    4350 3210
	1    0    0    -1  
$EndComp
$Comp
L Switch:SW_SPST SW?
U 1 1 64640922
P 4350 3340
AR Path="/645E5844/6460C3B5/64640922" Ref="SW?"  Part="1" 
AR Path="/645E5844/6460C93D/64640922" Ref="SW?"  Part="1" 
F 0 "SW?" H 4350 3580 50  0001 C CNN
F 1 "SW_SPST" H 4350 3486 50  0001 C CNN
F 2 "" H 4350 3340 50  0001 C CNN
F 3 "~" H 4350 3340 50  0001 C CNN
	1    4350 3340
	1    0    0    -1  
$EndComp
$Comp
L Switch:SW_SPST SW?
U 1 1 64640928
P 4350 3850
AR Path="/645E5844/6460C3B5/64640928" Ref="SW?"  Part="1" 
AR Path="/645E5844/6460C93D/64640928" Ref="SW?"  Part="1" 
F 0 "SW?" H 4350 4090 50  0001 C CNN
F 1 "SW_SPST" H 4350 3996 50  0001 C CNN
F 2 "" H 4350 3850 50  0001 C CNN
F 3 "~" H 4350 3850 50  0001 C CNN
	1    4350 3850
	1    0    0    -1  
$EndComp
Wire Wire Line
	4150 3210 4150 3280
Wire Wire Line
	4150 3700 4150 3780
Wire Wire Line
	4550 3850 4620 3850
Wire Wire Line
	4620 3210 4550 3210
Wire Wire Line
	4620 3210 4830 3210
Connection ~ 4620 3210
Wire Wire Line
	3980 3280 4150 3280
Connection ~ 4150 3280
Wire Wire Line
	4150 3280 4150 3340
$Comp
L Switch:SW_SPST SW?
U 1 1 64640937
P 4350 3700
AR Path="/645E5844/6460C3B5/64640937" Ref="SW?"  Part="1" 
AR Path="/645E5844/6460C93D/64640937" Ref="SW?"  Part="1" 
F 0 "SW?" H 4350 3940 50  0001 C CNN
F 1 "SW_SPST" H 4350 3846 50  0001 C CNN
F 2 "" H 4350 3700 50  0001 C CNN
F 3 "~" H 4350 3700 50  0001 C CNN
	1    4350 3700
	1    0    0    -1  
$EndComp
Wire Wire Line
	3980 3780 4150 3780
Connection ~ 4150 3780
Wire Wire Line
	4150 3780 4150 3850
Wire Wire Line
	4550 3340 4550 3700
Wire Wire Line
	4620 3210 4620 3850
Wire Notes Line
	4100 3100 4700 3100
Text Notes 3880 3060 0    50   ~ 0
ADG1414 8xSPST SPI Analog Switch
Wire Wire Line
	4550 3700 4830 3700
Connection ~ 4550 3700
Wire Notes Line
	4320 3190 4320 3680
Wire Notes Line
	4360 3300 4360 3810
$Comp
L Switch:SW_SPST SW?
U 1 1 64640948
P 4350 4310
AR Path="/645E5844/6460C3B5/64640948" Ref="SW?"  Part="1" 
AR Path="/645E5844/6460C93D/64640948" Ref="SW?"  Part="1" 
F 0 "SW?" H 4350 4550 50  0001 C CNN
F 1 "SW_SPST" H 4350 4456 50  0001 C CNN
F 2 "" H 4350 4310 50  0001 C CNN
F 3 "~" H 4350 4310 50  0001 C CNN
	1    4350 4310
	1    0    0    -1  
$EndComp
$Comp
L Switch:SW_SPST SW?
U 1 1 6464094E
P 4350 4440
AR Path="/645E5844/6460C3B5/6464094E" Ref="SW?"  Part="1" 
AR Path="/645E5844/6460C93D/6464094E" Ref="SW?"  Part="1" 
F 0 "SW?" H 4350 4680 50  0001 C CNN
F 1 "SW_SPST" H 4350 4586 50  0001 C CNN
F 2 "" H 4350 4440 50  0001 C CNN
F 3 "~" H 4350 4440 50  0001 C CNN
	1    4350 4440
	1    0    0    -1  
$EndComp
$Comp
L Switch:SW_SPST SW?
U 1 1 64640954
P 4350 4950
AR Path="/645E5844/6460C3B5/64640954" Ref="SW?"  Part="1" 
AR Path="/645E5844/6460C93D/64640954" Ref="SW?"  Part="1" 
F 0 "SW?" H 4350 5190 50  0001 C CNN
F 1 "SW_SPST" H 4350 5096 50  0001 C CNN
F 2 "" H 4350 4950 50  0001 C CNN
F 3 "~" H 4350 4950 50  0001 C CNN
	1    4350 4950
	1    0    0    -1  
$EndComp
Wire Wire Line
	4150 4310 4150 4380
Wire Wire Line
	4150 4800 4150 4880
Wire Wire Line
	4550 4950 4620 4950
Wire Wire Line
	4620 4310 4550 4310
Wire Wire Line
	4620 4310 4830 4310
Connection ~ 4620 4310
Wire Wire Line
	3980 4380 4150 4380
Connection ~ 4150 4380
Wire Wire Line
	4150 4380 4150 4440
$Comp
L Switch:SW_SPST SW?
U 1 1 64640963
P 4350 4800
AR Path="/645E5844/6460C3B5/64640963" Ref="SW?"  Part="1" 
AR Path="/645E5844/6460C93D/64640963" Ref="SW?"  Part="1" 
F 0 "SW?" H 4350 5040 50  0001 C CNN
F 1 "SW_SPST" H 4350 4946 50  0001 C CNN
F 2 "" H 4350 4800 50  0001 C CNN
F 3 "~" H 4350 4800 50  0001 C CNN
	1    4350 4800
	1    0    0    -1  
$EndComp
Wire Wire Line
	3980 4880 4150 4880
Connection ~ 4150 4880
Wire Wire Line
	4150 4880 4150 4950
Wire Wire Line
	4550 4440 4550 4800
Wire Wire Line
	4620 4310 4620 4950
Wire Notes Line
	4700 5060 4100 5060
Wire Wire Line
	4550 4800 4830 4800
Connection ~ 4550 4800
Wire Notes Line
	4320 4290 4320 4780
Wire Notes Line
	4360 4400 4360 4910
Text Notes 5080 2860 0    50   ~ 0
Double Inverter
Wire Notes Line
	4700 3100 4700 5060
Wire Notes Line
	4100 3100 4100 5060
$Comp
L Amplifier_Operational:OP179GRT U?
U 1 1 64640976
P 5570 3460
AR Path="/645E5844/6460C3B5/64640976" Ref="U?"  Part="1" 
AR Path="/645E5844/6460C93D/64640976" Ref="U?"  Part="1" 
F 0 "U?" H 5660 3590 50  0001 L CNN
F 1 "ADA4077-2 (1of2)" H 5520 3670 50  0000 L CNN
F 2 "Package_TO_SOT_SMD:SOT-23-5" H 5570 3460 50  0001 C CNN
F 3 "http://www.analog.com/media/en/technical-documentation/data-sheets/OP179_279.pdf" H 5570 3660 50  0001 C CNN
	1    5570 3460
	1    0    0    -1  
$EndComp
Wire Wire Line
	5270 3810 5870 3810
Wire Wire Line
	5870 3810 5870 3460
Connection ~ 5870 3460
Text Label 5470 3160 0    50   ~ 0
+7v
Text Label 5470 3760 0    50   ~ 0
-7v
$Comp
L Device:C C?
U 1 1 64640981
P 6070 3610
AR Path="/645E5844/6460C3B5/64640981" Ref="C?"  Part="1" 
AR Path="/645E5844/6460C93D/64640981" Ref="C?"  Part="1" 
F 0 "C?" H 6185 3657 50  0001 L CNN
F 1 "20pF" H 5970 3540 50  0000 L CNN
F 2 "" H 6108 3460 50  0001 C CNN
F 3 "~" H 6070 3610 50  0001 C CNN
	1    6070 3610
	1    0    0    -1  
$EndComp
$Comp
L Device:R R?
U 1 1 64640987
P 6210 3610
AR Path="/645E5844/6460C3B5/64640987" Ref="R?"  Part="1" 
AR Path="/645E5844/6460C93D/64640987" Ref="R?"  Part="1" 
F 0 "R?" H 6280 3657 50  0001 L CNN
F 1 "1M" H 6240 3610 50  0000 L CNN
F 2 "" V 6140 3610 50  0001 C CNN
F 3 "~" H 6210 3610 50  0001 C CNN
	1    6210 3610
	1    0    0    -1  
$EndComp
Wire Wire Line
	6070 3760 6140 3760
$Comp
L power:GND #PWR?
U 1 1 6464098E
P 6140 3760
AR Path="/645E5844/6460C3B5/6464098E" Ref="#PWR?"  Part="1" 
AR Path="/645E5844/6460C93D/6464098E" Ref="#PWR?"  Part="1" 
F 0 "#PWR?" H 6140 3510 50  0001 C CNN
F 1 "GND" H 6140 3610 50  0000 C CNN
F 2 "" H 6140 3760 50  0001 C CNN
F 3 "" H 6140 3760 50  0001 C CNN
	1    6140 3760
	1    0    0    -1  
$EndComp
Connection ~ 6140 3760
Wire Wire Line
	6140 3760 6210 3760
Wire Wire Line
	6210 3460 6640 3460
Wire Wire Line
	5870 3460 6070 3460
Wire Wire Line
	6070 3460 6210 3460
Connection ~ 6070 3460
Connection ~ 6210 3460
Wire Wire Line
	4830 3360 5270 3360
Wire Wire Line
	4830 4000 6650 4000
Wire Wire Line
	5270 3560 5270 3810
$Comp
L Amplifier_Operational:OP179GRT U?
U 1 1 6464099E
P 5570 4520
AR Path="/645E5844/6460C3B5/6464099E" Ref="U?"  Part="1" 
AR Path="/645E5844/6460C93D/6464099E" Ref="U?"  Part="1" 
F 0 "U?" H 5660 4650 50  0001 L CNN
F 1 "ADA4077-2 (2of2)" H 5520 4730 50  0000 L CNN
F 2 "Package_TO_SOT_SMD:SOT-23-5" H 5570 4520 50  0001 C CNN
F 3 "http://www.analog.com/media/en/technical-documentation/data-sheets/OP179_279.pdf" H 5570 4720 50  0001 C CNN
	1    5570 4520
	1    0    0    -1  
$EndComp
Wire Wire Line
	5270 4870 5870 4870
Wire Wire Line
	5870 4870 5870 4520
Connection ~ 5870 4520
Text Label 5470 4220 0    50   ~ 0
+7v
Text Label 5470 4820 0    50   ~ 0
-7v
$Comp
L Device:C C?
U 1 1 646409A9
P 6070 4670
AR Path="/645E5844/6460C3B5/646409A9" Ref="C?"  Part="1" 
AR Path="/645E5844/6460C93D/646409A9" Ref="C?"  Part="1" 
F 0 "C?" H 6185 4717 50  0001 L CNN
F 1 "20pF" H 5970 4600 50  0000 L CNN
F 2 "" H 6108 4520 50  0001 C CNN
F 3 "~" H 6070 4670 50  0001 C CNN
	1    6070 4670
	1    0    0    -1  
$EndComp
$Comp
L Device:R R?
U 1 1 646409AF
P 6210 4670
AR Path="/645E5844/6460C3B5/646409AF" Ref="R?"  Part="1" 
AR Path="/645E5844/6460C93D/646409AF" Ref="R?"  Part="1" 
F 0 "R?" H 6280 4717 50  0001 L CNN
F 1 "1M" H 6240 4670 50  0000 L CNN
F 2 "" V 6140 4670 50  0001 C CNN
F 3 "~" H 6210 4670 50  0001 C CNN
	1    6210 4670
	1    0    0    -1  
$EndComp
Wire Wire Line
	6070 4820 6140 4820
$Comp
L power:GND #PWR?
U 1 1 646409B6
P 6140 4820
AR Path="/645E5844/6460C3B5/646409B6" Ref="#PWR?"  Part="1" 
AR Path="/645E5844/6460C93D/646409B6" Ref="#PWR?"  Part="1" 
F 0 "#PWR?" H 6140 4570 50  0001 C CNN
F 1 "GND" H 6140 4670 50  0000 C CNN
F 2 "" H 6140 4820 50  0001 C CNN
F 3 "" H 6140 4820 50  0001 C CNN
	1    6140 4820
	1    0    0    -1  
$EndComp
Connection ~ 6140 4820
Wire Wire Line
	6140 4820 6210 4820
Wire Wire Line
	6210 4520 6640 4520
Wire Wire Line
	5870 4520 6070 4520
Wire Wire Line
	6070 4520 6210 4520
Connection ~ 6070 4520
Connection ~ 6210 4520
Wire Wire Line
	4830 4420 5270 4420
Wire Wire Line
	4830 5060 6650 5060
Wire Wire Line
	5270 4620 5270 4870
Wire Wire Line
	4830 4800 4830 5060
Wire Wire Line
	4830 4310 4830 4420
Wire Wire Line
	4830 3210 4830 3360
Wire Notes Line
	4010 5200 6460 5200
Wire Notes Line
	6460 5200 6460 2960
Wire Notes Line
	6460 2960 4010 2960
Wire Notes Line
	4010 2960 4010 5210
Wire Wire Line
	4830 3700 4830 4000
Text HLabel 3980 3280 0    50   Output ~ 0
E+
Text HLabel 3980 3780 0    50   Output ~ 0
E-
Text HLabel 3980 4380 0    50   Output ~ 0
F+
Text HLabel 3980 4880 0    50   Output ~ 0
F-
Text HLabel 6640 3460 2    50   Output ~ 0
E_Hot
Text HLabel 6650 4000 2    50   Output ~ 0
E-Out
Text HLabel 6640 4520 2    50   Output ~ 0
F_Hot
Text HLabel 6650 5060 2    50   Output ~ 0
F-Out
$EndSCHEMATC
