EESchema Schematic File Version 4
EELAYER 30 0
EELAYER END
$Descr A4 11693 8268
encoding utf-8
Sheet 3 17
Title ""
Date ""
Rev ""
Comp ""
Comment1 ""
Comment2 ""
Comment3 ""
Comment4 ""
$EndDescr
$Comp
L Switch:SW_SPST SW?
U 1 1 6467C5EC
P 4760 3030
F 0 "SW?" H 4760 3270 50  0001 C CNN
F 1 "SW_SPST" H 4760 3176 50  0001 C CNN
F 2 "" H 4760 3030 50  0001 C CNN
F 3 "~" H 4760 3030 50  0001 C CNN
	1    4760 3030
	1    0    0    -1  
$EndComp
$Comp
L Switch:SW_SPST SW?
U 1 1 6467C5F2
P 4760 3160
F 0 "SW?" H 4760 3400 50  0001 C CNN
F 1 "SW_SPST" H 4760 3306 50  0001 C CNN
F 2 "" H 4760 3160 50  0001 C CNN
F 3 "~" H 4760 3160 50  0001 C CNN
	1    4760 3160
	1    0    0    -1  
$EndComp
$Comp
L Switch:SW_SPST SW?
U 1 1 6467C5F8
P 4760 3670
F 0 "SW?" H 4760 3910 50  0001 C CNN
F 1 "SW_SPST" H 4760 3816 50  0001 C CNN
F 2 "" H 4760 3670 50  0001 C CNN
F 3 "~" H 4760 3670 50  0001 C CNN
	1    4760 3670
	1    0    0    -1  
$EndComp
Wire Wire Line
	4560 3030 4560 3100
Wire Wire Line
	4560 3520 4560 3600
Wire Wire Line
	4960 3670 5030 3670
Wire Wire Line
	5030 3030 4960 3030
Wire Wire Line
	5030 3030 5240 3030
Connection ~ 5030 3030
Wire Wire Line
	4390 3100 4560 3100
Connection ~ 4560 3100
Wire Wire Line
	4560 3100 4560 3160
$Comp
L Switch:SW_SPST SW?
U 1 1 6467C60E
P 4760 3520
F 0 "SW?" H 4760 3760 50  0001 C CNN
F 1 "SW_SPST" H 4760 3666 50  0001 C CNN
F 2 "" H 4760 3520 50  0001 C CNN
F 3 "~" H 4760 3520 50  0001 C CNN
	1    4760 3520
	1    0    0    -1  
$EndComp
Wire Wire Line
	4390 3600 4560 3600
Connection ~ 4560 3600
Wire Wire Line
	4560 3600 4560 3670
Wire Wire Line
	4960 3160 4960 3520
Wire Wire Line
	5030 3030 5030 3670
Wire Notes Line
	4510 2920 5110 2920
Text Notes 4290 2880 0    50   ~ 0
ADG1414 8xSPST SPI Analog Switch
Wire Wire Line
	4960 3520 5240 3520
Connection ~ 4960 3520
Wire Notes Line
	4730 3010 4730 3500
Wire Notes Line
	4770 3120 4770 3630
$Comp
L Switch:SW_SPST SW?
U 1 1 646861A9
P 4760 4130
F 0 "SW?" H 4760 4370 50  0001 C CNN
F 1 "SW_SPST" H 4760 4276 50  0001 C CNN
F 2 "" H 4760 4130 50  0001 C CNN
F 3 "~" H 4760 4130 50  0001 C CNN
	1    4760 4130
	1    0    0    -1  
$EndComp
$Comp
L Switch:SW_SPST SW?
U 1 1 646861AF
P 4760 4260
F 0 "SW?" H 4760 4500 50  0001 C CNN
F 1 "SW_SPST" H 4760 4406 50  0001 C CNN
F 2 "" H 4760 4260 50  0001 C CNN
F 3 "~" H 4760 4260 50  0001 C CNN
	1    4760 4260
	1    0    0    -1  
$EndComp
$Comp
L Switch:SW_SPST SW?
U 1 1 646861B5
P 4760 4770
F 0 "SW?" H 4760 5010 50  0001 C CNN
F 1 "SW_SPST" H 4760 4916 50  0001 C CNN
F 2 "" H 4760 4770 50  0001 C CNN
F 3 "~" H 4760 4770 50  0001 C CNN
	1    4760 4770
	1    0    0    -1  
$EndComp
Wire Wire Line
	4560 4130 4560 4200
Wire Wire Line
	4560 4620 4560 4700
Wire Wire Line
	4960 4770 5030 4770
Wire Wire Line
	5030 4130 4960 4130
Wire Wire Line
	5030 4130 5240 4130
Connection ~ 5030 4130
Wire Wire Line
	4390 4200 4560 4200
Connection ~ 4560 4200
Wire Wire Line
	4560 4200 4560 4260
$Comp
L Switch:SW_SPST SW?
U 1 1 646861CB
P 4760 4620
F 0 "SW?" H 4760 4860 50  0001 C CNN
F 1 "SW_SPST" H 4760 4766 50  0001 C CNN
F 2 "" H 4760 4620 50  0001 C CNN
F 3 "~" H 4760 4620 50  0001 C CNN
	1    4760 4620
	1    0    0    -1  
$EndComp
Wire Wire Line
	4390 4700 4560 4700
Connection ~ 4560 4700
Wire Wire Line
	4560 4700 4560 4770
Wire Wire Line
	4960 4260 4960 4620
Wire Wire Line
	5030 4130 5030 4770
Wire Notes Line
	5110 4880 4510 4880
Wire Wire Line
	4960 4620 5240 4620
Connection ~ 4960 4620
Wire Notes Line
	4730 4110 4730 4600
Wire Notes Line
	4770 4220 4770 4730
Text Notes 5490 2680 0    50   ~ 0
Double Inverter
Wire Notes Line
	5110 2920 5110 4880
Wire Notes Line
	4510 2920 4510 4880
$Comp
L Amplifier_Operational:OP179GRT U?
U 1 1 646EA916
P 5980 3280
F 0 "U?" H 6070 3410 50  0001 L CNN
F 1 "ADA4077-2 (1of2)" H 5930 3490 50  0000 L CNN
F 2 "Package_TO_SOT_SMD:SOT-23-5" H 5980 3280 50  0001 C CNN
F 3 "http://www.analog.com/media/en/technical-documentation/data-sheets/OP179_279.pdf" H 5980 3480 50  0001 C CNN
	1    5980 3280
	1    0    0    -1  
$EndComp
Wire Wire Line
	5680 3630 6280 3630
Wire Wire Line
	6280 3630 6280 3280
Connection ~ 6280 3280
Text Label 5880 2980 0    50   ~ 0
+7v
Text Label 5880 3580 0    50   ~ 0
-7v
$Comp
L Device:C C?
U 1 1 646EA922
P 6480 3430
F 0 "C?" H 6595 3477 50  0001 L CNN
F 1 "20pF" H 6380 3360 50  0000 L CNN
F 2 "" H 6518 3280 50  0001 C CNN
F 3 "~" H 6480 3430 50  0001 C CNN
	1    6480 3430
	1    0    0    -1  
$EndComp
$Comp
L Device:R R?
U 1 1 646EA928
P 6620 3430
F 0 "R?" H 6690 3477 50  0001 L CNN
F 1 "1M" H 6650 3430 50  0000 L CNN
F 2 "" V 6550 3430 50  0001 C CNN
F 3 "~" H 6620 3430 50  0001 C CNN
	1    6620 3430
	1    0    0    -1  
$EndComp
Wire Wire Line
	6480 3580 6550 3580
$Comp
L power:GND #PWR?
U 1 1 64642611
P 6550 3580
F 0 "#PWR?" H 6550 3330 50  0001 C CNN
F 1 "GND" H 6550 3430 50  0000 C CNN
F 2 "" H 6550 3580 50  0001 C CNN
F 3 "" H 6550 3580 50  0001 C CNN
	1    6550 3580
	1    0    0    -1  
$EndComp
Connection ~ 6550 3580
Wire Wire Line
	6550 3580 6620 3580
Wire Wire Line
	6620 3280 7050 3280
Wire Wire Line
	6280 3280 6480 3280
Wire Wire Line
	6480 3280 6620 3280
Connection ~ 6480 3280
Connection ~ 6620 3280
Wire Wire Line
	5240 3180 5680 3180
Wire Wire Line
	5240 3820 7060 3820
Wire Wire Line
	5680 3380 5680 3630
$Comp
L Amplifier_Operational:OP179GRT U?
U 1 1 64642612
P 5980 4340
F 0 "U?" H 6070 4470 50  0001 L CNN
F 1 "ADA4077-2 (2of2)" H 5930 4550 50  0000 L CNN
F 2 "Package_TO_SOT_SMD:SOT-23-5" H 5980 4340 50  0001 C CNN
F 3 "http://www.analog.com/media/en/technical-documentation/data-sheets/OP179_279.pdf" H 5980 4540 50  0001 C CNN
	1    5980 4340
	1    0    0    -1  
$EndComp
Wire Wire Line
	5680 4690 6280 4690
Wire Wire Line
	6280 4690 6280 4340
Connection ~ 6280 4340
Text Label 5880 4040 0    50   ~ 0
+7v
Text Label 5880 4640 0    50   ~ 0
-7v
$Comp
L Device:C C?
U 1 1 64642613
P 6480 4490
F 0 "C?" H 6595 4537 50  0001 L CNN
F 1 "20pF" H 6380 4420 50  0000 L CNN
F 2 "" H 6518 4340 50  0001 C CNN
F 3 "~" H 6480 4490 50  0001 C CNN
	1    6480 4490
	1    0    0    -1  
$EndComp
$Comp
L Device:R R?
U 1 1 64642614
P 6620 4490
F 0 "R?" H 6690 4537 50  0001 L CNN
F 1 "1M" H 6650 4490 50  0000 L CNN
F 2 "" V 6550 4490 50  0001 C CNN
F 3 "~" H 6620 4490 50  0001 C CNN
	1    6620 4490
	1    0    0    -1  
$EndComp
Wire Wire Line
	6480 4640 6550 4640
$Comp
L power:GND #PWR?
U 1 1 64642615
P 6550 4640
F 0 "#PWR?" H 6550 4390 50  0001 C CNN
F 1 "GND" H 6550 4490 50  0000 C CNN
F 2 "" H 6550 4640 50  0001 C CNN
F 3 "" H 6550 4640 50  0001 C CNN
	1    6550 4640
	1    0    0    -1  
$EndComp
Connection ~ 6550 4640
Wire Wire Line
	6550 4640 6620 4640
Wire Wire Line
	6620 4340 7050 4340
Wire Wire Line
	6280 4340 6480 4340
Wire Wire Line
	6480 4340 6620 4340
Connection ~ 6480 4340
Connection ~ 6620 4340
Wire Wire Line
	5240 4240 5680 4240
Wire Wire Line
	5240 4880 7060 4880
Wire Wire Line
	5680 4440 5680 4690
Wire Wire Line
	5240 4620 5240 4880
Wire Wire Line
	5240 4130 5240 4240
Wire Wire Line
	5240 3030 5240 3180
Wire Notes Line
	4420 5020 6870 5020
Wire Notes Line
	6870 5020 6870 2780
Wire Notes Line
	6870 2780 4420 2780
Wire Notes Line
	4420 2780 4420 5030
Wire Wire Line
	5240 3520 5240 3820
Text HLabel 4390 3100 0    50   Output ~ 0
A+
Text HLabel 4390 3600 0    50   Output ~ 0
A-
Text HLabel 4390 4200 0    50   Output ~ 0
B+
Text HLabel 4390 4700 0    50   Output ~ 0
B-
Text HLabel 7050 3280 2    50   Output ~ 0
A_Hot
Text HLabel 7060 3820 2    50   Output ~ 0
A-Out
Text HLabel 7050 4340 2    50   Output ~ 0
B_Hot
Text HLabel 7060 4880 2    50   Output ~ 0
B-Out
$EndSCHEMATC
