EESchema Schematic File Version 4
EELAYER 30 0
EELAYER END
$Descr A4 11693 8268
encoding utf-8
Sheet 6 17
Title ""
Date ""
Rev ""
Comp ""
Comment1 ""
Comment2 ""
Comment3 ""
Comment4 ""
$EndDescr
$Comp
L Amplifier_Operational:OP179GRT U3
U 1 1 5B196326
P 5420 4180
F 0 "U3" H 5763 4227 50  0001 L CNN
F 1 "ADA4077-4/2" H 5390 4390 50  0000 L CNN
F 2 "Package_TO_SOT_SMD:SOT-23-5" H 5420 4180 50  0001 C CNN
F 3 "http://www.analog.com/media/en/technical-documentation/data-sheets/OP179_279.pdf" H 5420 4380 50  0001 C CNN
	1    5420 4180
	1    0    0    -1  
$EndComp
$Comp
L power:GND #PWR09
U 1 1 5B197BF2
P 6230 3560
F 0 "#PWR09" H 6230 3310 50  0001 C CNN
F 1 "GND" H 6235 3384 50  0000 C CNN
F 2 "" H 6230 3560 50  0001 C CNN
F 3 "" H 6230 3560 50  0001 C CNN
	1    6230 3560
	1    0    0    -1  
$EndComp
$Comp
L Device:C C1
U 1 1 5B198261
P 4790 4300
F 0 "C1" H 4905 4347 50  0001 L CNN
F 1 "Tone Cap 20nF" H 4430 4410 50  0000 L CNN
F 2 "" H 4828 4150 50  0001 C CNN
F 3 "~" H 4790 4300 50  0001 C CNN
	1    4790 4300
	1    0    0    -1  
$EndComp
Wire Wire Line
	5120 4280 5120 4530
Wire Wire Line
	5120 4530 5720 4530
Wire Wire Line
	5720 4530 5720 4180
Text Label 5720 4180 3    50   ~ 0
Signal_+_toned
Text Label 5320 3880 0    50   ~ 0
+7v
Text Label 5230 2960 2    50   ~ 0
+7v
Text Label 6330 4580 0    50   ~ 0
-7v
Text Label 5320 4480 0    50   ~ 0
-7v
$Comp
L power:GND #PWR04
U 1 1 5B1A2AC7
P 4790 4450
F 0 "#PWR04" H 4790 4200 50  0001 C CNN
F 1 "GND" H 4660 4370 50  0000 C CNN
F 2 "" H 4790 4450 50  0001 C CNN
F 3 "" H 4790 4450 50  0001 C CNN
	1    4790 4450
	1    0    0    -1  
$EndComp
Text Notes 6310 5080 2    50   ~ 0
Single Volume/Tone Control
$Comp
L Full-Concept-rescue:DS1882-DS1882 U4
U 1 1 5B674EAD
P 5830 3060
F 0 "U4" V 5700 3070 50  0000 L CNN
F 1 "DS1882" V 5790 2950 50  0000 L CNN
F 2 "Package_SO:TSSOP-16_4.4x5mm_P0.65mm" H 5830 2360 50  0001 C CNN
F 3 "https://www.maximintegrated.com/en/products/analog/data-converters/digital-potentiometers/DS1882.html" H 5930 2960 50  0001 C CNN
	1    5830 3060
	0    1    1    0   
$EndComp
Text Notes 5250 4790 2    50   ~ 0
Tone Control &\nBuffer Unit
Text Label 5230 3060 2    50   ~ 0
-7v
Text Label 6430 2960 0    50   ~ 0
+5v
Wire Wire Line
	4790 3660 5730 3660
Wire Wire Line
	5730 3660 5730 3560
Wire Wire Line
	5100 4080 5100 3740
Wire Wire Line
	5100 3740 5830 3740
Wire Wire Line
	5830 3740 5830 3560
Wire Wire Line
	5100 4080 5120 4080
Wire Wire Line
	5630 3560 5630 3620
Wire Wire Line
	5630 3620 4640 3620
Wire Wire Line
	4640 3620 4640 4080
Wire Wire Line
	4790 3660 4790 4150
Wire Wire Line
	6030 3560 6030 4180
Wire Wire Line
	6030 4180 5980 4180
Connection ~ 5720 4180
Wire Wire Line
	6730 4280 6880 4280
Text Notes 6500 3810 0    50   ~ 0
Volume Control &\nBuffer Unit
$Comp
L Amplifier_Operational:OP179GRT U5
U 1 1 5B196713
P 6430 4280
F 0 "U5" H 6490 4490 50  0001 L CNN
F 1 "ADA4077-4/3" H 6480 4460 50  0000 L CNN
F 2 "Package_TO_SOT_SMD:SOT-23-5" H 6430 4280 50  0001 C CNN
F 3 "http://www.analog.com/media/en/technical-documentation/data-sheets/OP179_279.pdf" H 6430 4480 50  0001 C CNN
	1    6430 4280
	1    0    0    -1  
$EndComp
Wire Wire Line
	6130 4380 6130 4680
Wire Wire Line
	6130 4680 6730 4680
Wire Wire Line
	6730 4680 6730 4280
Connection ~ 6730 4280
Wire Wire Line
	6130 3560 6130 4180
$Comp
L Device:R R9
U 1 1 5B732EFE
P 6130 2410
F 0 "R9" H 6200 2457 50  0001 L CNN
F 1 "4.7K" V 6130 2330 50  0000 L CNN
F 2 "" V 6060 2410 50  0001 C CNN
F 3 "~" H 6130 2410 50  0001 C CNN
	1    6130 2410
	1    0    0    -1  
$EndComp
$Comp
L Device:R R10
U 1 1 5B732FD6
P 6230 2410
F 0 "R10" H 6300 2457 50  0001 L CNN
F 1 "4.7K" V 6230 2330 50  0000 L CNN
F 2 "" V 6160 2410 50  0001 C CNN
F 3 "~" H 6230 2410 50  0001 C CNN
	1    6230 2410
	1    0    0    -1  
$EndComp
Wire Wire Line
	6430 2260 6230 2260
Wire Wire Line
	6430 2260 6430 2960
Wire Wire Line
	6130 2260 6230 2260
Connection ~ 6230 2260
$Comp
L power:GND #PWR05
U 1 1 5B73429D
P 5430 3560
F 0 "#PWR05" H 5430 3310 50  0001 C CNN
F 1 "GND" V 5435 3384 50  0000 C CNN
F 2 "" H 5430 3560 50  0001 C CNN
F 3 "" H 5430 3560 50  0001 C CNN
	1    5430 3560
	0    1    1    0   
$EndComp
$Comp
L power:GND #PWR08
U 1 1 5B7342B3
P 5730 2560
F 0 "#PWR08" H 5730 2310 50  0001 C CNN
F 1 "GND" H 5610 2560 50  0000 C CNN
F 2 "" H 5730 2560 50  0001 C CNN
F 3 "" H 5730 2560 50  0001 C CNN
	1    5730 2560
	-1   0    0    1   
$EndComp
$Comp
L power:GND #PWR07
U 1 1 5B7342C2
P 5630 2560
F 0 "#PWR07" H 5630 2310 50  0001 C CNN
F 1 "GND" H 5630 2430 50  0000 C CNN
F 2 "" H 5630 2560 50  0001 C CNN
F 3 "" H 5630 2560 50  0001 C CNN
	1    5630 2560
	-1   0    0    1   
$EndComp
$Comp
L power:GND #PWR06
U 1 1 5B7342DC
P 5530 2560
F 0 "#PWR06" H 5530 2310 50  0001 C CNN
F 1 "GND" H 5620 2560 50  0000 C CNN
F 2 "" H 5530 2560 50  0001 C CNN
F 3 "" H 5530 2560 50  0001 C CNN
	1    5530 2560
	-1   0    0    1   
$EndComp
Text Label 6330 3980 0    50   ~ 0
+7v
$Comp
L Device:C C?
U 1 1 645D5A35
P 5840 4330
F 0 "C?" H 5955 4377 50  0001 L CNN
F 1 "20pF" H 5740 4260 50  0000 L CNN
F 2 "" H 5878 4180 50  0001 C CNN
F 3 "~" H 5840 4330 50  0001 C CNN
	1    5840 4330
	1    0    0    -1  
$EndComp
Connection ~ 5840 4180
Wire Wire Line
	5840 4180 5720 4180
$Comp
L Device:R R?
U 1 1 645D6C3E
P 5980 4330
F 0 "R?" H 6050 4377 50  0001 L CNN
F 1 "1M" H 6050 4330 50  0000 L CNN
F 2 "" V 5910 4330 50  0001 C CNN
F 3 "~" H 5980 4330 50  0001 C CNN
	1    5980 4330
	1    0    0    -1  
$EndComp
Connection ~ 5980 4180
Wire Wire Line
	5980 4180 5840 4180
Wire Wire Line
	5840 4480 5910 4480
$Comp
L power:GND #PWR?
U 1 1 645D97A5
P 5910 4480
F 0 "#PWR?" H 5910 4230 50  0001 C CNN
F 1 "GND" H 5910 4330 50  0000 C CNN
F 2 "" H 5910 4480 50  0001 C CNN
F 3 "" H 5910 4480 50  0001 C CNN
	1    5910 4480
	1    0    0    -1  
$EndComp
Connection ~ 5910 4480
Wire Wire Line
	5910 4480 5980 4480
Wire Wire Line
	4210 4080 4640 4080
Wire Wire Line
	6880 4580 6950 4580
$Comp
L power:GND #PWR?
U 1 1 6460E43D
P 6950 4580
F 0 "#PWR?" H 6950 4330 50  0001 C CNN
F 1 "GND" H 6950 4430 50  0000 C CNN
F 2 "" H 6950 4580 50  0001 C CNN
F 3 "" H 6950 4580 50  0001 C CNN
	1    6950 4580
	1    0    0    -1  
$EndComp
Connection ~ 6950 4580
Wire Wire Line
	6950 4580 7020 4580
$Comp
L Device:C C?
U 1 1 6460E42C
P 6880 4430
F 0 "C?" H 6995 4477 50  0001 L CNN
F 1 "20pF" H 6780 4360 50  0000 L CNN
F 2 "" H 6918 4280 50  0001 C CNN
F 3 "~" H 6880 4430 50  0001 C CNN
	1    6880 4430
	1    0    0    -1  
$EndComp
$Comp
L Device:R R?
U 1 1 6460E434
P 7020 4430
F 0 "R?" H 7090 4477 50  0001 L CNN
F 1 "1M" H 7090 4430 50  0000 L CNN
F 2 "" V 6950 4430 50  0001 C CNN
F 3 "~" H 7020 4430 50  0001 C CNN
	1    7020 4430
	1    0    0    -1  
$EndComp
Connection ~ 6880 4280
Wire Wire Line
	6880 4280 7020 4280
Wire Wire Line
	7020 4280 7440 4280
Connection ~ 7020 4280
Wire Notes Line
	7280 4890 7280 2120
Wire Notes Line
	7280 2120 4400 2120
Wire Notes Line
	4400 2120 4400 4890
Wire Notes Line
	4400 4890 7280 4890
Text HLabel 4210 4080 0    50   Input ~ 0
A_Hot
Text HLabel 7440 4280 2    50   Output ~ 0
A+Out
$EndSCHEMATC
