EESchema Schematic File Version 4
EELAYER 30 0
EELAYER END
$Descr A4 11693 8268
encoding utf-8
Sheet 1 1
Title ""
Date ""
Rev ""
Comp ""
Comment1 ""
Comment2 ""
Comment3 ""
Comment4 ""
$EndDescr
Wire Wire Line
	17390 7790 17390 7640
Wire Wire Line
	16550 7790 17390 7790
Wire Wire Line
	16440 7390 16240 7390
$Comp
L switches:SW_SP3T SW?
U 1 1 62C98AC7
P 16540 7590
F 0 "SW?" V 16587 7400 50  0001 R CNN
F 1 "SW_SP3T" V 16494 7400 50  0001 R CNN
F 2 "" H 15915 7765 50  0000 C CNN
F 3 "" H 15915 7765 50  0000 C CNN
	1    16540 7590
	0    -1   -1   0   
$EndComp
Wire Wire Line
	16840 7390 16640 7390
Wire Wire Line
	16840 7240 16840 7390
Wire Wire Line
	16540 7240 16540 7390
Wire Wire Line
	16240 7240 16240 7390
$Comp
L Device:R R?
U 1 1 62C98AB6
P 16090 7240
F 0 "R?" V 15880 7240 50  0001 C CNN
F 1 "10k" V 16080 7230 50  0000 C CNN
F 2 "" V 16020 7240 50  0001 C CNN
F 3 "~" H 16090 7240 50  0001 C CNN
	1    16090 7240
	0    1    1    0   
$EndComp
Connection ~ 16240 7240
$Comp
L Device:R R?
U 1 1 62C98AAC
P 16390 7240
F 0 "R?" V 16180 7240 50  0001 C CNN
F 1 "10k" V 16380 7230 50  0000 C CNN
F 2 "" V 16320 7240 50  0001 C CNN
F 3 "~" H 16390 7240 50  0001 C CNN
	1    16390 7240
	0    1    1    0   
$EndComp
$Comp
L power:GND #PWR?
U 1 1 62C98AA2
P 15940 7240
F 0 "#PWR?" H 15940 6990 50  0001 C CNN
F 1 "GND" H 15945 7064 50  0000 C CNN
F 2 "" H 15940 7240 50  0001 C CNN
F 3 "" H 15940 7240 50  0001 C CNN
	1    15940 7240
	0    1    1    0   
$EndComp
Connection ~ 16540 7240
$Comp
L Device:R R?
U 1 1 62C98A98
P 16690 7240
F 0 "R?" V 16480 7240 50  0001 C CNN
F 1 "10k" V 16680 7240 50  0000 C CNN
F 2 "" V 16620 7240 50  0001 C CNN
F 3 "~" H 16690 7240 50  0001 C CNN
	1    16690 7240
	0    1    1    0   
$EndComp
Connection ~ 16840 7240
$Comp
L Device:R R?
U 1 1 62C98A8E
P 16990 7240
F 0 "R?" V 16780 7240 50  0001 C CNN
F 1 "10k" V 16980 7240 50  0000 C CNN
F 2 "" V 16920 7240 50  0001 C CNN
F 3 "~" H 16990 7240 50  0001 C CNN
	1    16990 7240
	0    1    1    0   
$EndComp
Text Label 17140 7240 0    50   ~ 0
+5v
Wire Wire Line
	16440 8060 16240 8060
$Comp
L switches:SW_SP3T SW?
U 1 1 62C724DD
P 16540 8260
F 0 "SW?" V 16587 8070 50  0001 R CNN
F 1 "SW_SP3T" V 16494 8070 50  0001 R CNN
F 2 "" H 15915 8435 50  0000 C CNN
F 3 "" H 15915 8435 50  0000 C CNN
	1    16540 8260
	0    -1   -1   0   
$EndComp
Wire Wire Line
	17390 8460 17390 7840
Wire Wire Line
	16540 8460 17390 8460
Wire Wire Line
	16840 8060 16640 8060
Wire Wire Line
	16840 7910 16840 8060
Wire Wire Line
	16540 7910 16540 8060
Wire Wire Line
	16240 7910 16240 8060
Wire Notes Line
	15620 7060 15620 8500
Wire Notes Line
	15620 7050 18740 7050
Wire Notes Line
	15620 8500 18740 8500
$Comp
L Analog_ADC:ADC0832 U2
U 1 1 62B4CF73
P 17990 7740
F 0 "U2" H 18330 8280 50  0001 C CNN
F 1 "AD7904 2/4 Channels" H 17990 8330 50  0000 C CNN
F 2 "" H 17990 7740 50  0001 C CNN
F 3 "http://www.ti.com/lit/ds/symlink/adc0831-n.pdf" H 17990 7740 50  0001 C CNN
	1    17990 7740
	1    0    0    -1  
$EndComp
$Comp
L Device:R R2
U 1 1 62B9C645
P 16090 7910
F 0 "R2" V 15880 7910 50  0001 C CNN
F 1 "10k" V 16090 7910 50  0000 C CNN
F 2 "" V 16020 7910 50  0001 C CNN
F 3 "~" H 16090 7910 50  0001 C CNN
	1    16090 7910
	0    1    1    0   
$EndComp
Connection ~ 16240 7910
$Comp
L Device:R R4
U 1 1 62B9C63F
P 16390 7910
F 0 "R4" V 16180 7910 50  0001 C CNN
F 1 "10k" V 16390 7910 50  0000 C CNN
F 2 "" V 16320 7910 50  0001 C CNN
F 3 "~" H 16390 7910 50  0001 C CNN
	1    16390 7910
	0    1    1    0   
$EndComp
$Comp
L power:GND #PWR02
U 1 1 62B9C639
P 15940 7910
F 0 "#PWR02" H 15940 7660 50  0001 C CNN
F 1 "GND" H 15945 7734 50  0000 C CNN
F 2 "" H 15940 7910 50  0001 C CNN
F 3 "" H 15940 7910 50  0001 C CNN
	1    15940 7910
	0    1    1    0   
$EndComp
Connection ~ 16540 7910
$Comp
L Device:R R6
U 1 1 62B9C633
P 16690 7910
F 0 "R6" V 16480 7910 50  0001 C CNN
F 1 "10k" V 16690 7900 50  0000 C CNN
F 2 "" V 16620 7910 50  0001 C CNN
F 3 "~" H 16690 7910 50  0001 C CNN
	1    16690 7910
	0    1    1    0   
$EndComp
Connection ~ 16840 7910
$Comp
L Device:R R8
U 1 1 62B9C62D
P 16990 7910
F 0 "R8" V 16780 7910 50  0001 C CNN
F 1 "10k" V 16990 7910 50  0000 C CNN
F 2 "" V 16920 7910 50  0001 C CNN
F 3 "~" H 16990 7910 50  0001 C CNN
	1    16990 7910
	0    1    1    0   
$EndComp
Text Label 17140 7910 0    50   ~ 0
+5v
Text Label 17990 7340 0    50   ~ 0
+5v
$Comp
L power:GND #PWR03
U 1 1 62B4CF8F
P 17990 8140
F 0 "#PWR03" H 17990 7890 50  0001 C CNN
F 1 "GND" H 18100 8140 50  0000 C CNN
F 2 "" H 17990 8140 50  0001 C CNN
F 3 "" H 17990 8140 50  0001 C CNN
	1    17990 8140
	1    0    0    -1  
$EndComp
Text Notes 16000 8580 0    50   ~ 0
Dual 5-Way Selector/ADC  Unit
Wire Notes Line
	18740 8500 18740 7050
$EndSCHEMATC
