EESchema Schematic File Version 4
EELAYER 30 0
EELAYER END
$Descr A4 11693 8268
encoding utf-8
Sheet 1 1
Title ""
Date ""
Rev ""
Comp ""
Comment1 ""
Comment2 ""
Comment3 ""
Comment4 ""
$EndDescr
$Comp
L pspice:INDUCTOR L1
U 1 1 5B194B31
P 1980 3000
F 0 "L1" V 2060 3270 50  0001 R CNN
F 1 "Coil" V 1980 2970 50  0000 R CNN
F 2 "" H 1980 3000 50  0001 C CNN
F 3 "" H 1980 3000 50  0001 C CNN
	1    1980 3000
	0    -1   -1   0   
$EndComp
$Comp
L Switch:SW_SPDT SW1
U 1 1 5B194FE5
P 2410 2750
F 0 "SW1" H 2410 3040 50  0001 C CNN
F 1 "SW_SPDT" H 2410 2947 50  0001 C CNN
F 2 "" H 2410 2750 50  0001 C CNN
F 3 "" H 2410 2750 50  0001 C CNN
	1    2410 2750
	1    0    0    -1  
$EndComp
$Comp
L Switch:SW_SPDT SW2
U 1 1 5B195142
P 2410 3250
F 0 "SW2" H 2410 3540 50  0001 C CNN
F 1 "ADG1414 2x4 of 4x8" H 2470 4010 50  0000 C CNN
F 2 "" H 2410 3250 50  0001 C CNN
F 3 "" H 2410 3250 50  0001 C CNN
	1    2410 3250
	1    0    0    -1  
$EndComp
$Comp
L Amplifier_Operational:OP179GRT U1
U 1 1 5B195623
P 3040 2980
F 0 "U1" H 3130 3110 50  0001 L CNN
F 1 "ADA4077-4/1" H 2990 3190 50  0000 L CNN
F 2 "Package_TO_SOT_SMD:SOT-23-5" H 3040 2980 50  0001 C CNN
F 3 "http://www.analog.com/media/en/technical-documentation/data-sheets/OP179_279.pdf" H 3040 3180 50  0001 C CNN
	1    3040 2980
	1    0    0    -1  
$EndComp
$Comp
L Amplifier_Operational:OP179GRT U3
U 1 1 5B196326
P 4890 3080
F 0 "U3" H 5233 3127 50  0001 L CNN
F 1 "ADA4077-4/2" H 4860 3290 50  0000 L CNN
F 2 "Package_TO_SOT_SMD:SOT-23-5" H 4890 3080 50  0001 C CNN
F 3 "http://www.analog.com/media/en/technical-documentation/data-sheets/OP179_279.pdf" H 4890 3280 50  0001 C CNN
	1    4890 3080
	1    0    0    -1  
$EndComp
$Comp
L Device:R_POT_Dual RV1
U 1 1 5B196D1B
P 5890 4530
F 0 "RV1" V 5650 4230 50  0001 R CNN
F 1 "2-Axis Analog Thumbstick or Dual Pot" V 5370 5270 50  0000 R CNN
F 2 "" H 6140 4455 50  0001 C CNN
F 3 "~" H 6140 4455 50  0001 C CNN
	1    5890 4530
	0    1    1    0   
$EndComp
$Comp
L Analog_ADC:ADC0832 U6
U 1 1 5B197026
P 6830 4510
F 0 "U6" H 7170 5050 50  0001 C CNN
F 1 "AD7904 2/4 Channels" H 7070 5120 50  0000 C CNN
F 2 "" H 6830 4510 50  0001 C CNN
F 3 "http://www.ti.com/lit/ds/symlink/adc0831-n.pdf" H 6830 4510 50  0001 C CNN
	1    6830 4510
	1    0    0    -1  
$EndComp
Wire Notes Line
	5120 5270 7580 5270
Wire Notes Line
	7580 5270 7580 3820
Wire Notes Line
	7580 3820 5120 3820
Wire Notes Line
	5120 3820 5120 5270
Text Notes 5690 5190 0    50   ~ 0
Thumbstick or Dual Pot / ADC  Unit
$Comp
L power:GND #PWR09
U 1 1 5B197BF2
P 5700 2460
F 0 "#PWR09" H 5700 2210 50  0001 C CNN
F 1 "GND" H 5705 2284 50  0000 C CNN
F 2 "" H 5700 2460 50  0001 C CNN
F 3 "" H 5700 2460 50  0001 C CNN
	1    5700 2460
	1    0    0    -1  
$EndComp
$Comp
L Device:C C1
U 1 1 5B198261
P 4260 3200
F 0 "C1" H 4375 3247 50  0001 L CNN
F 1 "Tone Cap" H 3820 3210 50  0000 L CNN
F 2 "" H 4298 3050 50  0001 C CNN
F 3 "~" H 4260 3200 50  0001 C CNN
	1    4260 3200
	1    0    0    -1  
$EndComp
Wire Wire Line
	4590 3180 4590 3430
Wire Wire Line
	4590 3430 5190 3430
Wire Wire Line
	5190 3430 5190 3080
Text Label 7790 3180 0    50   ~ 0
Signal_+_toned_volumed
Wire Wire Line
	2740 3080 2740 3330
Wire Wire Line
	2740 3330 3340 3330
Wire Wire Line
	3340 3330 3340 2980
Connection ~ 3340 2980
Wire Wire Line
	2610 2650 2660 2650
Wire Wire Line
	2660 2650 2660 2880
Wire Wire Line
	2660 3350 2610 3350
Wire Wire Line
	2740 2880 2660 2880
Connection ~ 2660 2880
Wire Wire Line
	2660 2880 2660 3350
Wire Wire Line
	2610 2850 2610 3150
Text Label 2740 2880 1    50   ~ 0
Signal_+
Wire Wire Line
	2610 3150 2610 3270
Wire Wire Line
	2610 3270 2440 3270
Connection ~ 2610 3150
Text Label 7790 3750 0    50   ~ 0
Signal_-
Wire Wire Line
	1980 2750 2210 2750
Wire Wire Line
	1980 3250 2210 3250
Text Label 1980 2750 1    50   ~ 0
Coil_+
Text Label 1980 3250 3    50   ~ 0
Coil_-
Text Label 3340 2980 0    50   ~ 0
Signal_+
Text Label 5190 3080 3    50   ~ 0
Signal_+_toned
$Comp
L power:GND #PWR010
U 1 1 5B19BC80
P 5790 4520
F 0 "#PWR010" H 5790 4270 50  0001 C CNN
F 1 "GND" H 5795 4344 50  0000 C CNN
F 2 "" H 5790 4520 50  0001 C CNN
F 3 "" H 5790 4520 50  0001 C CNN
	1    5790 4520
	0    1    1    0   
$EndComp
Wire Wire Line
	5790 4430 5790 4520
Wire Wire Line
	5790 4630 5790 4520
Connection ~ 5790 4520
$Comp
L power:GND #PWR011
U 1 1 5B19C9B2
P 6830 4910
F 0 "#PWR011" H 6830 4660 50  0001 C CNN
F 1 "GND" H 6940 4910 50  0000 C CNN
F 2 "" H 6830 4910 50  0001 C CNN
F 3 "" H 6830 4910 50  0001 C CNN
	1    6830 4910
	1    0    0    -1  
$EndComp
Wire Wire Line
	5990 4280 6230 4280
Wire Wire Line
	6230 4280 6230 4410
Wire Wire Line
	5990 4780 6230 4780
Wire Wire Line
	6230 4780 6230 4610
Wire Wire Line
	3340 2980 4110 2980
Wire Notes Line
	1760 3640 3540 3640
Wire Notes Line
	3540 3640 3540 2290
Wire Notes Line
	3540 2290 1760 2290
Wire Notes Line
	1760 2290 1760 3640
Text Notes 3460 2500 2    50   ~ 0
Coil - Inverter &\nBuffer Unit
Wire Wire Line
	7790 3750 2440 3750
Wire Wire Line
	2440 3270 2440 3750
Text Label 4790 2780 0    50   ~ 0
+7v
Text Label 2940 2680 0    50   ~ 0
+7v
Text Label 4700 1860 2    50   ~ 0
+7v
Text Label 5800 3480 0    50   ~ 0
-7v
Text Label 4790 3380 0    50   ~ 0
-7v
Text Label 2940 3280 0    50   ~ 0
-7v
$Comp
L power:GND #PWR04
U 1 1 5B1A2AC7
P 4260 3350
F 0 "#PWR04" H 4260 3100 50  0001 C CNN
F 1 "GND" H 4130 3270 50  0000 C CNN
F 2 "" H 4260 3350 50  0001 C CNN
F 3 "" H 4260 3350 50  0001 C CNN
	1    4260 3350
	1    0    0    -1  
$EndComp
Wire Notes Line
	2700 3380 2700 2590
Wire Notes Line
	2700 2590 2190 2590
Wire Notes Line
	2190 2590 2190 3380
Wire Notes Line
	2190 3380 2700 3380
Wire Notes Line
	7760 5380 7760 1080
Wire Notes Line
	7760 1080 1350 1080
Wire Notes Line
	1350 1080 1350 5380
Wire Notes Line
	1350 5380 7760 5380
Text Notes 5150 1280 2    50   ~ 0
Single Coil Input and Command Unit
$Comp
L Full-Concept-rescue:DS1882-DS1882 U4
U 1 1 5B674EAD
P 5300 1960
F 0 "U4" V 5170 1970 50  0000 L CNN
F 1 "DS1882" V 5260 1850 50  0000 L CNN
F 2 "Package_SO:TSSOP-16_4.4x5mm_P0.65mm" H 5300 1260 50  0001 C CNN
F 3 "https://www.maximintegrated.com/en/products/analog/data-converters/digital-potentiometers/DS1882.html" H 5400 1860 50  0001 C CNN
	1    5300 1960
	0    1    1    0   
$EndComp
Text Notes 4720 3690 2    50   ~ 0
Tone Control &\nBuffer Unit
Text Label 4700 1960 2    50   ~ 0
-7v
Text Label 5900 1860 0    50   ~ 0
+5v
Wire Wire Line
	4260 2560 5200 2560
Wire Wire Line
	5200 2560 5200 2460
Wire Wire Line
	4570 2980 4570 2640
Wire Wire Line
	4570 2640 5300 2640
Wire Wire Line
	5300 2640 5300 2460
Wire Wire Line
	4570 2980 4590 2980
Wire Wire Line
	5100 2460 5100 2520
Wire Wire Line
	5100 2520 4110 2520
Wire Wire Line
	4110 2520 4110 2980
Wire Wire Line
	4260 2560 4260 3050
Wire Wire Line
	5500 2460 5500 3080
Wire Wire Line
	5500 3080 5190 3080
Connection ~ 5190 3080
Wire Wire Line
	6200 3180 7790 3180
Text Notes 6070 3480 0    50   ~ 0
Volume Control &\nBuffer Unit
$Comp
L Amplifier_Operational:OP179GRT U5
U 1 1 5B196713
P 5900 3180
F 0 "U5" H 5960 3390 50  0001 L CNN
F 1 "ADA4077-4/3" H 5950 3360 50  0000 L CNN
F 2 "Package_TO_SOT_SMD:SOT-23-5" H 5900 3180 50  0001 C CNN
F 3 "http://www.analog.com/media/en/technical-documentation/data-sheets/OP179_279.pdf" H 5900 3380 50  0001 C CNN
	1    5900 3180
	1    0    0    -1  
$EndComp
Wire Wire Line
	5600 3280 5600 3580
Wire Wire Line
	5600 3580 6200 3580
Wire Wire Line
	6200 3580 6200 3180
Connection ~ 6200 3180
Wire Wire Line
	5600 2460 5600 3080
$Comp
L Device:R R9
U 1 1 5B732EFE
P 5600 1310
F 0 "R9" H 5670 1357 50  0001 L CNN
F 1 "4.7K" V 5600 1230 50  0000 L CNN
F 2 "" V 5530 1310 50  0001 C CNN
F 3 "~" H 5600 1310 50  0001 C CNN
	1    5600 1310
	1    0    0    -1  
$EndComp
$Comp
L Device:R R10
U 1 1 5B732FD6
P 5700 1310
F 0 "R10" H 5770 1357 50  0001 L CNN
F 1 "4.7K" V 5700 1230 50  0000 L CNN
F 2 "" V 5630 1310 50  0001 C CNN
F 3 "~" H 5700 1310 50  0001 C CNN
	1    5700 1310
	1    0    0    -1  
$EndComp
Wire Wire Line
	5900 1160 5700 1160
Wire Wire Line
	5900 1160 5900 1860
Wire Wire Line
	5600 1160 5700 1160
Connection ~ 5700 1160
$Comp
L power:GND #PWR05
U 1 1 5B73429D
P 4900 2460
F 0 "#PWR05" H 4900 2210 50  0001 C CNN
F 1 "GND" V 4905 2284 50  0000 C CNN
F 2 "" H 4900 2460 50  0001 C CNN
F 3 "" H 4900 2460 50  0001 C CNN
	1    4900 2460
	0    1    1    0   
$EndComp
$Comp
L power:GND #PWR08
U 1 1 5B7342B3
P 5200 1460
F 0 "#PWR08" H 5200 1210 50  0001 C CNN
F 1 "GND" H 5080 1460 50  0000 C CNN
F 2 "" H 5200 1460 50  0001 C CNN
F 3 "" H 5200 1460 50  0001 C CNN
	1    5200 1460
	-1   0    0    1   
$EndComp
$Comp
L power:GND #PWR07
U 1 1 5B7342C2
P 5100 1460
F 0 "#PWR07" H 5100 1210 50  0001 C CNN
F 1 "GND" H 5100 1330 50  0000 C CNN
F 2 "" H 5100 1460 50  0001 C CNN
F 3 "" H 5100 1460 50  0001 C CNN
	1    5100 1460
	-1   0    0    1   
$EndComp
$Comp
L power:GND #PWR06
U 1 1 5B7342DC
P 5000 1460
F 0 "#PWR06" H 5000 1210 50  0001 C CNN
F 1 "GND" H 5090 1460 50  0000 C CNN
F 2 "" H 5000 1460 50  0001 C CNN
F 3 "" H 5000 1460 50  0001 C CNN
	1    5000 1460
	-1   0    0    1   
$EndComp
Text Label 5800 2880 0    50   ~ 0
+7v
Text Label 6830 4110 0    50   ~ 0
+5v
Text Label 5790 4130 0    50   ~ 0
+5v
Text Label 5790 4930 3    50   ~ 0
+5v
Wire Notes Line
	4580 5280 4580 3830
Text Notes 1840 5360 0    50   ~ 0
Dual 5-Way Selector/ADC  Unit
$Comp
L power:GND #PWR03
U 1 1 62B4CF8F
P 3830 4920
F 0 "#PWR03" H 3830 4670 50  0001 C CNN
F 1 "GND" H 3940 4920 50  0000 C CNN
F 2 "" H 3830 4920 50  0001 C CNN
F 3 "" H 3830 4920 50  0001 C CNN
	1    3830 4920
	1    0    0    -1  
$EndComp
Text Label 3830 4120 0    50   ~ 0
+5v
Text Label 2980 4690 0    50   ~ 0
+5v
$Comp
L Device:R R8
U 1 1 62B9C62D
P 2830 4690
F 0 "R8" V 2620 4690 50  0001 C CNN
F 1 "10k" V 2830 4690 50  0000 C CNN
F 2 "" V 2760 4690 50  0001 C CNN
F 3 "~" H 2830 4690 50  0001 C CNN
	1    2830 4690
	0    1    1    0   
$EndComp
$Comp
L Device:R R6
U 1 1 62B9C633
P 2530 4690
F 0 "R6" V 2320 4690 50  0001 C CNN
F 1 "10k" V 2530 4680 50  0000 C CNN
F 2 "" V 2460 4690 50  0001 C CNN
F 3 "~" H 2530 4690 50  0001 C CNN
	1    2530 4690
	0    1    1    0   
$EndComp
$Comp
L power:GND #PWR02
U 1 1 62B9C639
P 1780 4690
F 0 "#PWR02" H 1780 4440 50  0001 C CNN
F 1 "GND" H 1785 4514 50  0000 C CNN
F 2 "" H 1780 4690 50  0001 C CNN
F 3 "" H 1780 4690 50  0001 C CNN
	1    1780 4690
	0    1    1    0   
$EndComp
$Comp
L Device:R R4
U 1 1 62B9C63F
P 2230 4690
F 0 "R4" V 2020 4690 50  0001 C CNN
F 1 "10k" V 2230 4690 50  0000 C CNN
F 2 "" V 2160 4690 50  0001 C CNN
F 3 "~" H 2230 4690 50  0001 C CNN
	1    2230 4690
	0    1    1    0   
$EndComp
$Comp
L Device:R R2
U 1 1 62B9C645
P 1930 4690
F 0 "R2" V 1720 4690 50  0001 C CNN
F 1 "10k" V 1930 4690 50  0000 C CNN
F 2 "" V 1860 4690 50  0001 C CNN
F 3 "~" H 1930 4690 50  0001 C CNN
	1    1930 4690
	0    1    1    0   
$EndComp
$Comp
L Analog_ADC:ADC0832 U2
U 1 1 62B4CF73
P 3830 4520
F 0 "U2" H 4170 5060 50  0001 C CNN
F 1 "AD7904 2/4 Channels" H 3830 5110 50  0000 C CNN
F 2 "" H 3830 4520 50  0001 C CNN
F 3 "http://www.ti.com/lit/ds/symlink/adc0831-n.pdf" H 3830 4520 50  0001 C CNN
	1    3830 4520
	1    0    0    -1  
$EndComp
Wire Notes Line
	1460 5280 4580 5280
Wire Notes Line
	1460 3830 4580 3830
Wire Notes Line
	1460 3840 1460 5280
Wire Wire Line
	2080 4690 2080 4840
Connection ~ 2080 4690
Wire Wire Line
	2380 4690 2380 4840
Connection ~ 2380 4690
Wire Wire Line
	2680 4690 2680 4840
Wire Wire Line
	2680 4840 2480 4840
Connection ~ 2680 4690
Wire Wire Line
	2380 5240 3230 5240
Wire Wire Line
	3230 5240 3230 4620
$Comp
L switches:SW_SP3T SW?
U 1 1 62C724DD
P 2380 5040
F 0 "SW?" V 2427 4850 50  0001 R CNN
F 1 "SW_SP3T" V 2334 4850 50  0001 R CNN
F 2 "" H 1755 5215 50  0000 C CNN
F 3 "" H 1755 5215 50  0000 C CNN
	1    2380 5040
	0    -1   -1   0   
$EndComp
Wire Wire Line
	2280 4840 2080 4840
Text Label 2980 4020 0    50   ~ 0
+5v
$Comp
L Device:R R?
U 1 1 62C98A8E
P 2830 4020
F 0 "R?" V 2620 4020 50  0001 C CNN
F 1 "10k" V 2820 4020 50  0000 C CNN
F 2 "" V 2760 4020 50  0001 C CNN
F 3 "~" H 2830 4020 50  0001 C CNN
	1    2830 4020
	0    1    1    0   
$EndComp
$Comp
L Device:R R?
U 1 1 62C98A98
P 2530 4020
F 0 "R?" V 2320 4020 50  0001 C CNN
F 1 "10k" V 2520 4020 50  0000 C CNN
F 2 "" V 2460 4020 50  0001 C CNN
F 3 "~" H 2530 4020 50  0001 C CNN
	1    2530 4020
	0    1    1    0   
$EndComp
$Comp
L power:GND #PWR?
U 1 1 62C98AA2
P 1780 4020
F 0 "#PWR?" H 1780 3770 50  0001 C CNN
F 1 "GND" H 1785 3844 50  0000 C CNN
F 2 "" H 1780 4020 50  0001 C CNN
F 3 "" H 1780 4020 50  0001 C CNN
	1    1780 4020
	0    1    1    0   
$EndComp
$Comp
L Device:R R?
U 1 1 62C98AAC
P 2230 4020
F 0 "R?" V 2020 4020 50  0001 C CNN
F 1 "10k" V 2220 4010 50  0000 C CNN
F 2 "" V 2160 4020 50  0001 C CNN
F 3 "~" H 2230 4020 50  0001 C CNN
	1    2230 4020
	0    1    1    0   
$EndComp
$Comp
L Device:R R?
U 1 1 62C98AB6
P 1930 4020
F 0 "R?" V 1720 4020 50  0001 C CNN
F 1 "10k" V 1920 4010 50  0000 C CNN
F 2 "" V 1860 4020 50  0001 C CNN
F 3 "~" H 1930 4020 50  0001 C CNN
	1    1930 4020
	0    1    1    0   
$EndComp
Wire Wire Line
	2080 4020 2080 4170
Connection ~ 2080 4020
Wire Wire Line
	2380 4020 2380 4170
Connection ~ 2380 4020
Wire Wire Line
	2680 4020 2680 4170
Wire Wire Line
	2680 4170 2480 4170
Connection ~ 2680 4020
$Comp
L switches:SW_SP3T SW?
U 1 1 62C98AC7
P 2380 4370
F 0 "SW?" V 2427 4180 50  0001 R CNN
F 1 "SW_SP3T" V 2334 4180 50  0001 R CNN
F 2 "" H 1755 4545 50  0000 C CNN
F 3 "" H 1755 4545 50  0000 C CNN
	1    2380 4370
	0    -1   -1   0   
$EndComp
Wire Wire Line
	2280 4170 2080 4170
Wire Wire Line
	2390 4570 3230 4570
Wire Wire Line
	3230 4570 3230 4420
$Comp
L Device:Rotary_Encoder SW?
U 1 1 62CA5E48
P 3270 6610
F 0 "SW?" V 3165 6840 50  0001 L CNN
F 1 "Rotary_Encoder" V 3530 6320 50  0000 L CNN
F 2 "" H 3120 6770 50  0001 C CNN
F 3 "~" H 3270 6870 50  0001 C CNN
	1    3270 6610
	0    1    1    0   
$EndComp
$Comp
L 74xGxx:SN74LVC1G14DBV U?
U 1 1 62CA81BE
P 2670 6310
F 0 "U?" H 2850 6180 50  0001 R CNN
F 1 "SN74LVC1G14DBV" H 2424 6356 50  0001 R CNN
F 2 "Package_TO_SOT_SMD:SOT-23-5" H 2670 6060 50  0001 C CNN
F 3 "http://www.ti.com/lit/ds/symlink/sn74lvc1g14.pdf" H 2670 6310 50  0001 C CNN
	1    2670 6310
	-1   0    0    1   
$EndComp
$Comp
L Device:R R?
U 1 1 62CAC42F
P 3020 6310
F 0 "R?" V 2810 6310 50  0001 C CNN
F 1 "10k" V 3020 6310 50  0000 C CNN
F 2 "" V 2950 6310 50  0001 C CNN
F 3 "~" H 3020 6310 50  0001 C CNN
	1    3020 6310
	0    1    1    0   
$EndComp
$Comp
L Device:R R?
U 1 1 62CADA49
P 3170 6160
F 0 "R?" V 2960 6160 50  0001 C CNN
F 1 "10k" V 3170 6160 50  0000 C CNN
F 2 "" V 3100 6160 50  0001 C CNN
F 3 "~" H 3170 6160 50  0001 C CNN
	1    3170 6160
	-1   0    0    1   
$EndComp
$Comp
L Device:R R?
U 1 1 62CAF043
P 3370 6160
F 0 "R?" V 3160 6160 50  0001 C CNN
F 1 "10k" V 3370 6160 50  0000 C CNN
F 2 "" V 3300 6160 50  0001 C CNN
F 3 "~" H 3370 6160 50  0001 C CNN
	1    3370 6160
	-1   0    0    1   
$EndComp
$Comp
L Device:R R?
U 1 1 62CB07B6
P 3520 6310
F 0 "R?" V 3310 6310 50  0001 C CNN
F 1 "10k" V 3520 6310 50  0000 C CNN
F 2 "" V 3450 6310 50  0001 C CNN
F 3 "~" H 3520 6310 50  0001 C CNN
	1    3520 6310
	0    1    1    0   
$EndComp
$Comp
L Device:C C?
U 1 1 62CB1DC9
P 2870 6460
F 0 "C?" H 2750 6360 50  0001 L CNN
F 1 "100nF" H 2750 6360 50  0000 L CNN
F 2 "" H 2908 6310 50  0001 C CNN
F 3 "~" H 2870 6460 50  0001 C CNN
	1    2870 6460
	1    0    0    -1  
$EndComp
$Comp
L power:GND #PWR?
U 1 1 62CB3A47
P 3270 6310
F 0 "#PWR?" H 3270 6060 50  0001 C CNN
F 1 "GND" H 3270 6140 50  0000 C CNN
F 2 "" H 3270 6310 50  0001 C CNN
F 3 "" H 3270 6310 50  0001 C CNN
	1    3270 6310
	-1   0    0    1   
$EndComp
$Comp
L power:GND #PWR?
U 1 1 62CB9AEE
P 2870 6610
F 0 "#PWR?" H 2870 6360 50  0001 C CNN
F 1 "GND" H 2870 6440 50  0000 C CNN
F 2 "" H 2870 6610 50  0001 C CNN
F 3 "" H 2870 6610 50  0001 C CNN
	1    2870 6610
	1    0    0    -1  
$EndComp
Connection ~ 2870 6310
Connection ~ 3170 6310
Connection ~ 3370 6310
$Comp
L power:GND #PWR?
U 1 1 62CC9708
P 3670 6610
F 0 "#PWR?" H 3670 6360 50  0001 C CNN
F 1 "GND" H 3670 6440 50  0000 C CNN
F 2 "" H 3670 6610 50  0001 C CNN
F 3 "" H 3670 6610 50  0001 C CNN
	1    3670 6610
	1    0    0    -1  
$EndComp
$Comp
L Device:C C?
U 1 1 62CCA234
P 3670 6460
F 0 "C?" H 3550 6360 50  0001 L CNN
F 1 "100nF" H 3550 6360 50  0000 L CNN
F 2 "" H 3708 6310 50  0001 C CNN
F 3 "~" H 3670 6460 50  0001 C CNN
	1    3670 6460
	1    0    0    -1  
$EndComp
$Comp
L 74xGxx:SN74LVC1G14DBV U?
U 1 1 62CCAC11
P 3870 6310
F 0 "U?" H 4050 6180 50  0001 R CNN
F 1 "SN74LVC1G14DBV" H 3624 6356 50  0001 R CNN
F 2 "Package_TO_SOT_SMD:SOT-23-5" H 3870 6060 50  0001 C CNN
F 3 "http://www.ti.com/lit/ds/symlink/sn74lvc1g14.pdf" H 3870 6310 50  0001 C CNN
	1    3870 6310
	1    0    0    -1  
$EndComp
Connection ~ 3670 6310
Text Label 4170 6310 0    50   ~ 0
Interrupt_Input_no_pull
Text Label 2370 6310 2    50   ~ 0
Input_no_pull
Wire Notes Line
	1640 5760 1640 7120
Wire Notes Line
	1640 7120 5170 7120
Wire Notes Line
	5170 7120 5170 5760
Wire Notes Line
	5170 5760 1650 5760
Text Notes 2700 7050 0    50   ~ 0
Rotary Encoder Debounce Circuit
Text Label 3170 6010 1    50   ~ 0
+3.3v
Text Label 3370 6010 1    50   ~ 0
+3.3v
$EndSCHEMATC
