EESchema Schematic File Version 4
EELAYER 30 0
EELAYER END
$Descr A4 11693 8268
encoding utf-8
Sheet 1 1
Title "Audio inputs and HMI "
Date "2023-05-14"
Rev "V 00"
Comp ""
Comment1 "Coil Inverter, Volume/Tone, Unity Gain buffer"
Comment2 ", 5-way selector, Dual Rotary encoder with switch"
Comment3 ""
Comment4 ""
$EndDescr
$Comp
L Amplifier_Operational:OP179GRT U3
U 1 1 5B196326
P 6970 2740
F 0 "U3" H 7313 2787 50  0001 L CNN
F 1 "ADA4077-4/2" H 6940 2950 50  0000 L CNN
F 2 "Package_TO_SOT_SMD:SOT-23-5" H 6970 2740 50  0001 C CNN
F 3 "http://www.analog.com/media/en/technical-documentation/data-sheets/OP179_279.pdf" H 6970 2940 50  0001 C CNN
	1    6970 2740
	1    0    0    -1  
$EndComp
$Comp
L power:GND #PWR09
U 1 1 5B197BF2
P 7780 2120
F 0 "#PWR09" H 7780 1870 50  0001 C CNN
F 1 "GND" H 7785 1944 50  0000 C CNN
F 2 "" H 7780 2120 50  0001 C CNN
F 3 "" H 7780 2120 50  0001 C CNN
	1    7780 2120
	1    0    0    -1  
$EndComp
$Comp
L Device:C C1
U 1 1 5B198261
P 6340 2860
F 0 "C1" H 6455 2907 50  0001 L CNN
F 1 "Tone Cap 20nF" H 5980 2970 50  0000 L CNN
F 2 "" H 6378 2710 50  0001 C CNN
F 3 "~" H 6340 2860 50  0001 C CNN
	1    6340 2860
	1    0    0    -1  
$EndComp
Wire Wire Line
	6670 2840 6670 3090
Wire Wire Line
	6670 3090 7270 3090
Wire Wire Line
	7270 3090 7270 2740
Text Label 8990 2840 0    50   ~ 0
Signal_+_toned_volumed
Text Label 7270 2740 3    50   ~ 0
Signal_+_toned
Text Label 6870 2440 0    50   ~ 0
+7v
Text Label 6780 1520 2    50   ~ 0
+7v
Text Label 7880 3140 0    50   ~ 0
-7v
Text Label 6870 3040 0    50   ~ 0
-7v
$Comp
L power:GND #PWR04
U 1 1 5B1A2AC7
P 6340 3010
F 0 "#PWR04" H 6340 2760 50  0001 C CNN
F 1 "GND" H 6210 2930 50  0000 C CNN
F 2 "" H 6340 3010 50  0001 C CNN
F 3 "" H 6340 3010 50  0001 C CNN
	1    6340 3010
	1    0    0    -1  
$EndComp
Text Notes 7860 3640 2    50   ~ 0
Single Volume/Tone Control
$Comp
L Full-Concept-rescue:DS1882-DS1882 U4
U 1 1 5B674EAD
P 7380 1620
F 0 "U4" V 7250 1630 50  0000 L CNN
F 1 "DS1882" V 7340 1510 50  0000 L CNN
F 2 "Package_SO:TSSOP-16_4.4x5mm_P0.65mm" H 7380 920 50  0001 C CNN
F 3 "https://www.maximintegrated.com/en/products/analog/data-converters/digital-potentiometers/DS1882.html" H 7480 1520 50  0001 C CNN
	1    7380 1620
	0    1    1    0   
$EndComp
Text Notes 6800 3350 2    50   ~ 0
Tone Control &\nBuffer Unit
Text Label 6780 1620 2    50   ~ 0
-7v
Text Label 7980 1520 0    50   ~ 0
+5v
Wire Wire Line
	6340 2220 7280 2220
Wire Wire Line
	7280 2220 7280 2120
Wire Wire Line
	6650 2640 6650 2300
Wire Wire Line
	6650 2300 7380 2300
Wire Wire Line
	7380 2300 7380 2120
Wire Wire Line
	6650 2640 6670 2640
Wire Wire Line
	7180 2120 7180 2180
Wire Wire Line
	7180 2180 6190 2180
Wire Wire Line
	6190 2180 6190 2640
Wire Wire Line
	6340 2220 6340 2710
Wire Wire Line
	7580 2120 7580 2740
Wire Wire Line
	7580 2740 7530 2740
Connection ~ 7270 2740
Wire Wire Line
	8280 2840 8430 2840
Text Notes 8050 2370 0    50   ~ 0
Volume Control &\nBuffer Unit
$Comp
L Amplifier_Operational:OP179GRT U5
U 1 1 5B196713
P 7980 2840
F 0 "U5" H 8040 3050 50  0001 L CNN
F 1 "ADA4077-4/3" H 8030 3020 50  0000 L CNN
F 2 "Package_TO_SOT_SMD:SOT-23-5" H 7980 2840 50  0001 C CNN
F 3 "http://www.analog.com/media/en/technical-documentation/data-sheets/OP179_279.pdf" H 7980 3040 50  0001 C CNN
	1    7980 2840
	1    0    0    -1  
$EndComp
Wire Wire Line
	7680 2940 7680 3240
Wire Wire Line
	7680 3240 8280 3240
Wire Wire Line
	8280 3240 8280 2840
Connection ~ 8280 2840
Wire Wire Line
	7680 2120 7680 2740
$Comp
L Device:R R9
U 1 1 5B732EFE
P 7680 970
F 0 "R9" H 7750 1017 50  0001 L CNN
F 1 "4.7K" V 7680 890 50  0000 L CNN
F 2 "" V 7610 970 50  0001 C CNN
F 3 "~" H 7680 970 50  0001 C CNN
	1    7680 970 
	1    0    0    -1  
$EndComp
$Comp
L Device:R R10
U 1 1 5B732FD6
P 7780 970
F 0 "R10" H 7850 1017 50  0001 L CNN
F 1 "4.7K" V 7780 890 50  0000 L CNN
F 2 "" V 7710 970 50  0001 C CNN
F 3 "~" H 7780 970 50  0001 C CNN
	1    7780 970 
	1    0    0    -1  
$EndComp
Wire Wire Line
	7980 820  7780 820 
Wire Wire Line
	7980 820  7980 1520
Wire Wire Line
	7680 820  7780 820 
Connection ~ 7780 820 
$Comp
L power:GND #PWR05
U 1 1 5B73429D
P 6980 2120
F 0 "#PWR05" H 6980 1870 50  0001 C CNN
F 1 "GND" V 6985 1944 50  0000 C CNN
F 2 "" H 6980 2120 50  0001 C CNN
F 3 "" H 6980 2120 50  0001 C CNN
	1    6980 2120
	0    1    1    0   
$EndComp
$Comp
L power:GND #PWR08
U 1 1 5B7342B3
P 7280 1120
F 0 "#PWR08" H 7280 870 50  0001 C CNN
F 1 "GND" H 7160 1120 50  0000 C CNN
F 2 "" H 7280 1120 50  0001 C CNN
F 3 "" H 7280 1120 50  0001 C CNN
	1    7280 1120
	-1   0    0    1   
$EndComp
$Comp
L power:GND #PWR07
U 1 1 5B7342C2
P 7180 1120
F 0 "#PWR07" H 7180 870 50  0001 C CNN
F 1 "GND" H 7180 990 50  0000 C CNN
F 2 "" H 7180 1120 50  0001 C CNN
F 3 "" H 7180 1120 50  0001 C CNN
	1    7180 1120
	-1   0    0    1   
$EndComp
$Comp
L power:GND #PWR06
U 1 1 5B7342DC
P 7080 1120
F 0 "#PWR06" H 7080 870 50  0001 C CNN
F 1 "GND" H 7170 1120 50  0000 C CNN
F 2 "" H 7080 1120 50  0001 C CNN
F 3 "" H 7080 1120 50  0001 C CNN
	1    7080 1120
	-1   0    0    1   
$EndComp
Text Label 7880 2540 0    50   ~ 0
+7v
$Comp
L Device:C C?
U 1 1 645D5A35
P 7390 2890
F 0 "C?" H 7505 2937 50  0001 L CNN
F 1 "20pF" H 7290 2820 50  0000 L CNN
F 2 "" H 7428 2740 50  0001 C CNN
F 3 "~" H 7390 2890 50  0001 C CNN
	1    7390 2890
	1    0    0    -1  
$EndComp
Connection ~ 7390 2740
Wire Wire Line
	7390 2740 7270 2740
$Comp
L Device:R R?
U 1 1 645D6C3E
P 7530 2890
F 0 "R?" H 7600 2937 50  0001 L CNN
F 1 "1M" H 7600 2890 50  0000 L CNN
F 2 "" V 7460 2890 50  0001 C CNN
F 3 "~" H 7530 2890 50  0001 C CNN
	1    7530 2890
	1    0    0    -1  
$EndComp
Connection ~ 7530 2740
Wire Wire Line
	7530 2740 7390 2740
Wire Wire Line
	7390 3040 7460 3040
$Comp
L power:GND #PWR?
U 1 1 645D97A5
P 7460 3040
F 0 "#PWR?" H 7460 2790 50  0001 C CNN
F 1 "GND" H 7460 2890 50  0000 C CNN
F 2 "" H 7460 3040 50  0001 C CNN
F 3 "" H 7460 3040 50  0001 C CNN
	1    7460 3040
	1    0    0    -1  
$EndComp
Connection ~ 7460 3040
Wire Wire Line
	7460 3040 7530 3040
Wire Wire Line
	5760 2640 6190 2640
Wire Wire Line
	8430 3140 8500 3140
$Comp
L power:GND #PWR?
U 1 1 6460E43D
P 8500 3140
F 0 "#PWR?" H 8500 2890 50  0001 C CNN
F 1 "GND" H 8500 2990 50  0000 C CNN
F 2 "" H 8500 3140 50  0001 C CNN
F 3 "" H 8500 3140 50  0001 C CNN
	1    8500 3140
	1    0    0    -1  
$EndComp
Connection ~ 8500 3140
Wire Wire Line
	8500 3140 8570 3140
$Comp
L Device:C C?
U 1 1 6460E42C
P 8430 2990
F 0 "C?" H 8545 3037 50  0001 L CNN
F 1 "20pF" H 8330 2920 50  0000 L CNN
F 2 "" H 8468 2840 50  0001 C CNN
F 3 "~" H 8430 2990 50  0001 C CNN
	1    8430 2990
	1    0    0    -1  
$EndComp
$Comp
L Device:R R?
U 1 1 6460E434
P 8570 2990
F 0 "R?" H 8640 3037 50  0001 L CNN
F 1 "1M" H 8640 2990 50  0000 L CNN
F 2 "" V 8500 2990 50  0001 C CNN
F 3 "~" H 8570 2990 50  0001 C CNN
	1    8570 2990
	1    0    0    -1  
$EndComp
Connection ~ 8430 2840
Wire Wire Line
	8430 2840 8570 2840
$Comp
L Switch:SW_SPST SW?
U 1 1 6463907F
P 1870 1200
F 0 "SW?" H 1870 1440 50  0001 C CNN
F 1 "SW_SPST" H 1870 1346 50  0001 C CNN
F 2 "" H 1870 1200 50  0001 C CNN
F 3 "~" H 1870 1200 50  0001 C CNN
	1    1870 1200
	1    0    0    -1  
$EndComp
$Comp
L Switch:SW_SPST SW?
U 1 1 64639A73
P 1870 1330
F 0 "SW?" H 1870 1570 50  0001 C CNN
F 1 "SW_SPST" H 1870 1476 50  0001 C CNN
F 2 "" H 1870 1330 50  0001 C CNN
F 3 "~" H 1870 1330 50  0001 C CNN
	1    1870 1330
	1    0    0    -1  
$EndComp
$Comp
L Switch:SW_SPST SW?
U 1 1 64642DA9
P 1870 1840
F 0 "SW?" H 1870 2080 50  0001 C CNN
F 1 "SW_SPST" H 1870 1986 50  0001 C CNN
F 2 "" H 1870 1840 50  0001 C CNN
F 3 "~" H 1870 1840 50  0001 C CNN
	1    1870 1840
	1    0    0    -1  
$EndComp
Wire Wire Line
	1670 1200 1670 1270
Wire Wire Line
	1670 1690 1670 1770
Wire Wire Line
	2070 1840 2140 1840
Wire Wire Line
	2140 1200 2070 1200
Wire Wire Line
	2140 1200 2350 1200
Connection ~ 2140 1200
Text Label 2350 1200 0    50   ~ 0
Signal+
$Comp
L pspice:INDUCTOR L?
U 1 1 64654F1C
P 1500 1520
F 0 "L?" V 1580 1790 50  0001 R CNN
F 1 "Coil" V 1490 1780 50  0000 R CNN
F 2 "" H 1500 1520 50  0001 C CNN
F 3 "" H 1500 1520 50  0001 C CNN
	1    1500 1520
	0    -1   -1   0   
$EndComp
Wire Wire Line
	1500 1270 1670 1270
Connection ~ 1670 1270
Wire Wire Line
	1670 1270 1670 1330
$Comp
L Switch:SW_SPST SW?
U 1 1 64642DA3
P 1870 1690
F 0 "SW?" H 1870 1930 50  0001 C CNN
F 1 "SW_SPST" H 1870 1836 50  0001 C CNN
F 2 "" H 1870 1690 50  0001 C CNN
F 3 "~" H 1870 1690 50  0001 C CNN
	1    1870 1690
	1    0    0    -1  
$EndComp
Wire Wire Line
	1500 1770 1670 1770
Connection ~ 1670 1770
Wire Wire Line
	1670 1770 1670 1840
Wire Wire Line
	2070 1330 2070 1690
Wire Wire Line
	2140 1200 2140 1840
Text Label 4170 1970 0    50   ~ 0
Signal-
Wire Notes Line
	1620 1090 2220 1090
Wire Notes Line
	2220 1090 2220 1950
Wire Notes Line
	2220 1950 1620 1950
Wire Notes Line
	1620 1950 1620 1090
Text Notes 1400 1050 0    50   ~ 0
ADGS1412 4xSPST SPI Analog Switch
Wire Wire Line
	2070 1690 2350 1690
Connection ~ 2070 1690
Wire Notes Line
	1840 1180 1840 1670
Wire Notes Line
	1880 1290 1880 1800
Text Notes 2640 2250 0    50   ~ 0
Single Inverter
$Comp
L Switch:SW_SPST SW?
U 1 1 6467C5EC
P 1900 2790
F 0 "SW?" H 1900 3030 50  0001 C CNN
F 1 "SW_SPST" H 1900 2936 50  0001 C CNN
F 2 "" H 1900 2790 50  0001 C CNN
F 3 "~" H 1900 2790 50  0001 C CNN
	1    1900 2790
	1    0    0    -1  
$EndComp
$Comp
L Switch:SW_SPST SW?
U 1 1 6467C5F2
P 1900 2920
F 0 "SW?" H 1900 3160 50  0001 C CNN
F 1 "SW_SPST" H 1900 3066 50  0001 C CNN
F 2 "" H 1900 2920 50  0001 C CNN
F 3 "~" H 1900 2920 50  0001 C CNN
	1    1900 2920
	1    0    0    -1  
$EndComp
$Comp
L Switch:SW_SPST SW?
U 1 1 6467C5F8
P 1900 3430
F 0 "SW?" H 1900 3670 50  0001 C CNN
F 1 "SW_SPST" H 1900 3576 50  0001 C CNN
F 2 "" H 1900 3430 50  0001 C CNN
F 3 "~" H 1900 3430 50  0001 C CNN
	1    1900 3430
	1    0    0    -1  
$EndComp
Wire Wire Line
	1700 2790 1700 2860
Wire Wire Line
	1700 3280 1700 3360
Wire Wire Line
	2100 3430 2170 3430
Wire Wire Line
	2170 2790 2100 2790
Wire Wire Line
	2170 2790 2380 2790
Connection ~ 2170 2790
Text Label 2380 2790 0    50   ~ 0
Signal_A+
$Comp
L pspice:INDUCTOR L?
U 1 1 6467C605
P 1530 3110
F 0 "L?" V 1610 3380 50  0001 R CNN
F 1 "Coil_A" V 1520 3370 50  0000 R CNN
F 2 "" H 1530 3110 50  0001 C CNN
F 3 "" H 1530 3110 50  0001 C CNN
	1    1530 3110
	0    -1   -1   0   
$EndComp
Wire Wire Line
	1530 2860 1700 2860
Connection ~ 1700 2860
Wire Wire Line
	1700 2860 1700 2920
$Comp
L Switch:SW_SPST SW?
U 1 1 6467C60E
P 1900 3280
F 0 "SW?" H 1900 3520 50  0001 C CNN
F 1 "SW_SPST" H 1900 3426 50  0001 C CNN
F 2 "" H 1900 3280 50  0001 C CNN
F 3 "~" H 1900 3280 50  0001 C CNN
	1    1900 3280
	1    0    0    -1  
$EndComp
Wire Wire Line
	1530 3360 1700 3360
Connection ~ 1700 3360
Wire Wire Line
	1700 3360 1700 3430
Wire Wire Line
	2100 2920 2100 3280
Wire Wire Line
	2170 2790 2170 3430
Text Label 4200 3580 0    50   ~ 0
Signal_A-
Wire Notes Line
	1650 2680 2250 2680
Text Notes 1430 2640 0    50   ~ 0
ADG1414 8xSPST SPI Analog Switch
Wire Wire Line
	2100 3280 2380 3280
Connection ~ 2100 3280
Wire Notes Line
	1870 2770 1870 3260
Wire Notes Line
	1910 2880 1910 3390
$Comp
L Switch:SW_SPST SW?
U 1 1 646861A9
P 1900 3890
F 0 "SW?" H 1900 4130 50  0001 C CNN
F 1 "SW_SPST" H 1900 4036 50  0001 C CNN
F 2 "" H 1900 3890 50  0001 C CNN
F 3 "~" H 1900 3890 50  0001 C CNN
	1    1900 3890
	1    0    0    -1  
$EndComp
$Comp
L Switch:SW_SPST SW?
U 1 1 646861AF
P 1900 4020
F 0 "SW?" H 1900 4260 50  0001 C CNN
F 1 "SW_SPST" H 1900 4166 50  0001 C CNN
F 2 "" H 1900 4020 50  0001 C CNN
F 3 "~" H 1900 4020 50  0001 C CNN
	1    1900 4020
	1    0    0    -1  
$EndComp
$Comp
L Switch:SW_SPST SW?
U 1 1 646861B5
P 1900 4530
F 0 "SW?" H 1900 4770 50  0001 C CNN
F 1 "SW_SPST" H 1900 4676 50  0001 C CNN
F 2 "" H 1900 4530 50  0001 C CNN
F 3 "~" H 1900 4530 50  0001 C CNN
	1    1900 4530
	1    0    0    -1  
$EndComp
Wire Wire Line
	1700 3890 1700 3960
Wire Wire Line
	1700 4380 1700 4460
Wire Wire Line
	2100 4530 2170 4530
Wire Wire Line
	2170 3890 2100 3890
Wire Wire Line
	2170 3890 2380 3890
Connection ~ 2170 3890
Text Label 2380 3890 0    50   ~ 0
Signal_B+
$Comp
L pspice:INDUCTOR L?
U 1 1 646861C2
P 1530 4210
F 0 "L?" V 1610 4480 50  0001 R CNN
F 1 "Coil_B" V 1520 4470 50  0000 R CNN
F 2 "" H 1530 4210 50  0001 C CNN
F 3 "" H 1530 4210 50  0001 C CNN
	1    1530 4210
	0    -1   -1   0   
$EndComp
Wire Wire Line
	1530 3960 1700 3960
Connection ~ 1700 3960
Wire Wire Line
	1700 3960 1700 4020
$Comp
L Switch:SW_SPST SW?
U 1 1 646861CB
P 1900 4380
F 0 "SW?" H 1900 4620 50  0001 C CNN
F 1 "SW_SPST" H 1900 4526 50  0001 C CNN
F 2 "" H 1900 4380 50  0001 C CNN
F 3 "~" H 1900 4380 50  0001 C CNN
	1    1900 4380
	1    0    0    -1  
$EndComp
Wire Wire Line
	1530 4460 1700 4460
Connection ~ 1700 4460
Wire Wire Line
	1700 4460 1700 4530
Wire Wire Line
	2100 4020 2100 4380
Wire Wire Line
	2170 3890 2170 4530
Text Label 4200 4640 0    50   ~ 0
Signal_B-
Wire Notes Line
	2250 4640 1650 4640
Wire Wire Line
	2100 4380 2380 4380
Connection ~ 2100 4380
Wire Notes Line
	1870 3870 1870 4360
Wire Notes Line
	1910 3980 1910 4490
Text Notes 2630 2440 0    50   ~ 0
Double Inverter
Wire Notes Line
	2250 2680 2250 4640
Wire Notes Line
	1650 2680 1650 4640
$Comp
L Amplifier_Operational:OP179GRT U?
U 1 1 646A3EF8
P 3090 1430
F 0 "U?" H 3180 1560 50  0001 L CNN
F 1 "ADA4077-1 " H 3040 1640 50  0000 L CNN
F 2 "Package_TO_SOT_SMD:SOT-23-5" H 3090 1430 50  0001 C CNN
F 3 "http://www.analog.com/media/en/technical-documentation/data-sheets/OP179_279.pdf" H 3090 1630 50  0001 C CNN
	1    3090 1430
	1    0    0    -1  
$EndComp
Wire Wire Line
	2790 1780 3390 1780
Wire Wire Line
	3390 1780 3390 1430
Connection ~ 3390 1430
Text Label 2990 1130 0    50   ~ 0
+7v
Text Label 2990 1730 0    50   ~ 0
-7v
Text Label 3390 1430 0    50   ~ 0
Signal_+
$Comp
L Device:C C?
U 1 1 646A3F06
P 3590 1580
F 0 "C?" H 3705 1627 50  0001 L CNN
F 1 "20pF" H 3490 1510 50  0000 L CNN
F 2 "" H 3628 1430 50  0001 C CNN
F 3 "~" H 3590 1580 50  0001 C CNN
	1    3590 1580
	1    0    0    -1  
$EndComp
$Comp
L Device:R R?
U 1 1 646A3F0C
P 3730 1580
F 0 "R?" H 3800 1627 50  0001 L CNN
F 1 "1M" H 3760 1580 50  0000 L CNN
F 2 "" V 3660 1580 50  0001 C CNN
F 3 "~" H 3730 1580 50  0001 C CNN
	1    3730 1580
	1    0    0    -1  
$EndComp
Wire Wire Line
	3590 1730 3660 1730
$Comp
L power:GND #PWR?
U 1 1 646A3F13
P 3660 1730
F 0 "#PWR?" H 3660 1480 50  0001 C CNN
F 1 "GND" H 3660 1580 50  0000 C CNN
F 2 "" H 3660 1730 50  0001 C CNN
F 3 "" H 3660 1730 50  0001 C CNN
	1    3660 1730
	1    0    0    -1  
$EndComp
Connection ~ 3660 1730
Wire Wire Line
	3660 1730 3730 1730
Wire Wire Line
	3730 1430 4160 1430
Wire Wire Line
	3390 1430 3590 1430
Wire Wire Line
	3590 1430 3730 1430
Connection ~ 3590 1430
Connection ~ 3730 1430
Wire Wire Line
	2350 1200 2350 1330
Wire Wire Line
	2350 1330 2790 1330
Text Label 4160 1430 0    50   ~ 0
Buffered_Signal+
Wire Wire Line
	2350 1690 2350 1970
Wire Wire Line
	2350 1970 4170 1970
Wire Notes Line
	4010 2140 4010 900 
Wire Notes Line
	4010 900  1560 900 
Wire Notes Line
	1560 900  1560 2140
Wire Notes Line
	1560 2140 4010 2140
Wire Wire Line
	2790 1530 2790 1780
$Comp
L Amplifier_Operational:OP179GRT U?
U 1 1 646EA916
P 3120 3040
F 0 "U?" H 3210 3170 50  0001 L CNN
F 1 "ADA4077-2 (1of2)" H 3070 3250 50  0000 L CNN
F 2 "Package_TO_SOT_SMD:SOT-23-5" H 3120 3040 50  0001 C CNN
F 3 "http://www.analog.com/media/en/technical-documentation/data-sheets/OP179_279.pdf" H 3120 3240 50  0001 C CNN
	1    3120 3040
	1    0    0    -1  
$EndComp
Wire Wire Line
	2820 3390 3420 3390
Wire Wire Line
	3420 3390 3420 3040
Connection ~ 3420 3040
Text Label 3020 2740 0    50   ~ 0
+7v
Text Label 3020 3340 0    50   ~ 0
-7v
Text Label 3420 3040 0    50   ~ 0
Signal_+
$Comp
L Device:C C?
U 1 1 646EA922
P 3620 3190
F 0 "C?" H 3735 3237 50  0001 L CNN
F 1 "20pF" H 3520 3120 50  0000 L CNN
F 2 "" H 3658 3040 50  0001 C CNN
F 3 "~" H 3620 3190 50  0001 C CNN
	1    3620 3190
	1    0    0    -1  
$EndComp
$Comp
L Device:R R?
U 1 1 646EA928
P 3760 3190
F 0 "R?" H 3830 3237 50  0001 L CNN
F 1 "1M" H 3790 3190 50  0000 L CNN
F 2 "" V 3690 3190 50  0001 C CNN
F 3 "~" H 3760 3190 50  0001 C CNN
	1    3760 3190
	1    0    0    -1  
$EndComp
Wire Wire Line
	3620 3340 3690 3340
$Comp
L power:GND #PWR?
U 1 1 646EA92F
P 3690 3340
F 0 "#PWR?" H 3690 3090 50  0001 C CNN
F 1 "GND" H 3690 3190 50  0000 C CNN
F 2 "" H 3690 3340 50  0001 C CNN
F 3 "" H 3690 3340 50  0001 C CNN
	1    3690 3340
	1    0    0    -1  
$EndComp
Connection ~ 3690 3340
Wire Wire Line
	3690 3340 3760 3340
Wire Wire Line
	3760 3040 4190 3040
Wire Wire Line
	3420 3040 3620 3040
Wire Wire Line
	3620 3040 3760 3040
Connection ~ 3620 3040
Connection ~ 3760 3040
Wire Wire Line
	2380 2940 2820 2940
Text Label 4190 3040 0    50   ~ 0
Buffered_Signal_A+
Wire Wire Line
	2380 3580 4200 3580
Wire Wire Line
	2820 3140 2820 3390
$Comp
L Amplifier_Operational:OP179GRT U?
U 1 1 646F1F59
P 3120 4100
F 0 "U?" H 3210 4230 50  0001 L CNN
F 1 "ADA4077-2 (2of2)" H 3070 4310 50  0000 L CNN
F 2 "Package_TO_SOT_SMD:SOT-23-5" H 3120 4100 50  0001 C CNN
F 3 "http://www.analog.com/media/en/technical-documentation/data-sheets/OP179_279.pdf" H 3120 4300 50  0001 C CNN
	1    3120 4100
	1    0    0    -1  
$EndComp
Wire Wire Line
	2820 4450 3420 4450
Wire Wire Line
	3420 4450 3420 4100
Connection ~ 3420 4100
Text Label 3020 3800 0    50   ~ 0
+7v
Text Label 3020 4400 0    50   ~ 0
-7v
Text Label 3420 4100 0    50   ~ 0
Signal_+
$Comp
L Device:C C?
U 1 1 646F1F65
P 3620 4250
F 0 "C?" H 3735 4297 50  0001 L CNN
F 1 "20pF" H 3520 4180 50  0000 L CNN
F 2 "" H 3658 4100 50  0001 C CNN
F 3 "~" H 3620 4250 50  0001 C CNN
	1    3620 4250
	1    0    0    -1  
$EndComp
$Comp
L Device:R R?
U 1 1 646F1F6B
P 3760 4250
F 0 "R?" H 3830 4297 50  0001 L CNN
F 1 "1M" H 3790 4250 50  0000 L CNN
F 2 "" V 3690 4250 50  0001 C CNN
F 3 "~" H 3760 4250 50  0001 C CNN
	1    3760 4250
	1    0    0    -1  
$EndComp
Wire Wire Line
	3620 4400 3690 4400
$Comp
L power:GND #PWR?
U 1 1 646F1F72
P 3690 4400
F 0 "#PWR?" H 3690 4150 50  0001 C CNN
F 1 "GND" H 3690 4250 50  0000 C CNN
F 2 "" H 3690 4400 50  0001 C CNN
F 3 "" H 3690 4400 50  0001 C CNN
	1    3690 4400
	1    0    0    -1  
$EndComp
Connection ~ 3690 4400
Wire Wire Line
	3690 4400 3760 4400
Wire Wire Line
	3760 4100 4190 4100
Wire Wire Line
	3420 4100 3620 4100
Wire Wire Line
	3620 4100 3760 4100
Connection ~ 3620 4100
Connection ~ 3760 4100
Wire Wire Line
	2380 4000 2820 4000
Text Label 4190 4100 0    50   ~ 0
Buffered_Signal_B+
Wire Wire Line
	2380 4640 4200 4640
Wire Wire Line
	2820 4200 2820 4450
Wire Wire Line
	2380 4380 2380 4640
Wire Wire Line
	2380 3890 2380 4000
Wire Wire Line
	2380 2790 2380 2940
Wire Notes Line
	1560 4780 4010 4780
Wire Notes Line
	4010 4780 4010 2540
Wire Notes Line
	4010 2540 1560 2540
Wire Notes Line
	1560 2540 1560 4790
Wire Wire Line
	2380 3280 2380 3580
Text Label 5760 2640 2    50   ~ 0
Signal_IN+
Wire Wire Line
	8570 2840 8990 2840
Connection ~ 8570 2840
Wire Notes Line
	8830 3450 8830 680 
Wire Notes Line
	8830 680  5950 680 
Wire Notes Line
	5950 680  5950 3450
Wire Notes Line
	5950 3450 8830 3450
$Comp
L Amplifier_Operational:OP179GRT U?
U 1 1 647E971B
P 3170 6320
F 0 "U?" H 3260 6450 50  0001 L CNN
F 1 "ADA4077-1" H 3120 6530 50  0000 L CNN
F 2 "Package_TO_SOT_SMD:SOT-23-5" H 3170 6320 50  0001 C CNN
F 3 "http://www.analog.com/media/en/technical-documentation/data-sheets/OP179_279.pdf" H 3170 6520 50  0001 C CNN
	1    3170 6320
	1    0    0    -1  
$EndComp
Wire Wire Line
	2870 6670 3470 6670
Wire Wire Line
	3470 6670 3470 6320
Connection ~ 3470 6320
Text Label 3070 6020 0    50   ~ 0
+7v
Text Label 3070 6620 0    50   ~ 0
-7v
Text Label 3470 6320 0    50   ~ 0
Signal_+
$Comp
L Device:C C?
U 1 1 647E9727
P 3670 6470
F 0 "C?" H 3785 6517 50  0001 L CNN
F 1 "20pF" H 3570 6400 50  0000 L CNN
F 2 "" H 3708 6320 50  0001 C CNN
F 3 "~" H 3670 6470 50  0001 C CNN
	1    3670 6470
	1    0    0    -1  
$EndComp
$Comp
L Device:R R?
U 1 1 647E972D
P 3810 6470
F 0 "R?" H 3880 6517 50  0001 L CNN
F 1 "1M" H 3840 6470 50  0000 L CNN
F 2 "" V 3740 6470 50  0001 C CNN
F 3 "~" H 3810 6470 50  0001 C CNN
	1    3810 6470
	1    0    0    -1  
$EndComp
Wire Wire Line
	3670 6620 3740 6620
$Comp
L power:GND #PWR?
U 1 1 647E9734
P 3740 6620
F 0 "#PWR?" H 3740 6370 50  0001 C CNN
F 1 "GND" H 3740 6470 50  0000 C CNN
F 2 "" H 3740 6620 50  0001 C CNN
F 3 "" H 3740 6620 50  0001 C CNN
	1    3740 6620
	1    0    0    -1  
$EndComp
Connection ~ 3740 6620
Wire Wire Line
	3740 6620 3810 6620
Wire Wire Line
	3810 6320 4240 6320
Wire Wire Line
	3470 6320 3670 6320
Wire Wire Line
	3670 6320 3810 6320
Connection ~ 3670 6320
Connection ~ 3810 6320
Wire Wire Line
	2430 6220 2870 6220
Wire Wire Line
	2870 6420 2870 6670
Text Label 2430 6220 2    50   ~ 0
Signal_IN+
Text Label 4240 6320 0    50   ~ 0
Signal_OUT+
Text Notes 3050 5780 0    50   ~ 0
Unity Gain Buffer
Wire Notes Line
	2760 5830 2760 6900
Wire Notes Line
	2760 6900 4050 6900
Wire Notes Line
	4050 6900 4050 5830
Wire Notes Line
	4050 5830 2760 5830
$Comp
L Bob_Rotary_Encoder:DualRotaryEncoderSwitch U?
U 1 1 64625BFB
P 6130 4870
F 0 "U?" H 6150 5220 50  0000 C CNN
F 1 "DualRotaryEncoderSwitch" H 6150 5127 50  0000 C CNN
F 2 "" H 6130 4870 50  0001 C CNN
F 3 "" H 6130 4870 50  0001 C CNN
	1    6130 4870
	1    0    0    -1  
$EndComp
$Comp
L power:GND #PWR?
U 1 1 646298B7
P 6130 5210
F 0 "#PWR?" H 6130 4960 50  0001 C CNN
F 1 "GND" H 6130 5060 50  0000 C CNN
F 2 "" H 6130 5210 50  0001 C CNN
F 3 "" H 6130 5210 50  0001 C CNN
	1    6130 5210
	1    0    0    -1  
$EndComp
$Comp
L power:GND #PWR?
U 1 1 6462B633
P 6450 4990
F 0 "#PWR?" H 6450 4740 50  0001 C CNN
F 1 "GND" H 6450 4840 50  0000 C CNN
F 2 "" H 6450 4990 50  0001 C CNN
F 3 "" H 6450 4990 50  0001 C CNN
	1    6450 4990
	0    -1   -1   0   
$EndComp
$Comp
L power:GND #PWR?
U 1 1 6462BE00
P 5850 4890
F 0 "#PWR?" H 5850 4640 50  0001 C CNN
F 1 "GND" H 5850 4740 50  0000 C CNN
F 2 "" H 5850 4890 50  0001 C CNN
F 3 "" H 5850 4890 50  0001 C CNN
	1    5850 4890
	0    1    1    0   
$EndComp
Wire Wire Line
	9130 4990 9130 4840
$Comp
L Device:R R?
U 1 1 62C98AB6
P 7830 4440
F 0 "R?" V 7620 4440 50  0001 C CNN
F 1 "10k" V 7820 4430 50  0000 C CNN
F 2 "" V 7760 4440 50  0001 C CNN
F 3 "~" H 7830 4440 50  0001 C CNN
	1    7830 4440
	0    1    1    0   
$EndComp
Connection ~ 7980 4440
$Comp
L Device:R R?
U 1 1 62C98AAC
P 8130 4440
F 0 "R?" V 7920 4440 50  0001 C CNN
F 1 "10k" V 8120 4430 50  0000 C CNN
F 2 "" V 8060 4440 50  0001 C CNN
F 3 "~" H 8130 4440 50  0001 C CNN
	1    8130 4440
	0    1    1    0   
$EndComp
$Comp
L power:GND #PWR?
U 1 1 62C98AA2
P 7680 4440
F 0 "#PWR?" H 7680 4190 50  0001 C CNN
F 1 "GND" H 7685 4264 50  0000 C CNN
F 2 "" H 7680 4440 50  0001 C CNN
F 3 "" H 7680 4440 50  0001 C CNN
	1    7680 4440
	0    1    1    0   
$EndComp
Connection ~ 8280 4440
$Comp
L Device:R R?
U 1 1 62C98A98
P 8430 4440
F 0 "R?" V 8220 4440 50  0001 C CNN
F 1 "10k" V 8420 4440 50  0000 C CNN
F 2 "" V 8360 4440 50  0001 C CNN
F 3 "~" H 8430 4440 50  0001 C CNN
	1    8430 4440
	0    1    1    0   
$EndComp
$Comp
L Device:R R?
U 1 1 62C98A8E
P 8730 4440
F 0 "R?" V 8520 4440 50  0001 C CNN
F 1 "10k" V 8720 4440 50  0000 C CNN
F 2 "" V 8660 4440 50  0001 C CNN
F 3 "~" H 8730 4440 50  0001 C CNN
	1    8730 4440
	0    1    1    0   
$EndComp
Wire Wire Line
	8180 5260 7980 5260
Wire Wire Line
	9130 5660 9130 5040
Wire Wire Line
	8280 5660 9130 5660
Wire Wire Line
	8580 5260 8380 5260
Wire Wire Line
	8580 5110 8580 5260
Wire Wire Line
	8280 5110 8280 5260
Wire Wire Line
	7980 5110 7980 5260
Wire Notes Line
	7360 4260 7360 5700
Wire Notes Line
	7360 4250 10480 4250
Wire Notes Line
	7360 5700 10480 5700
$Comp
L Analog_ADC:ADC0832 U2
U 1 1 62B4CF73
P 9730 4940
F 0 "U2" H 10070 5480 50  0001 C CNN
F 1 "AD7904 2/4 Channels, note: REFin is 2.5V, Vdrive is logic ref, " H 9730 5570 50  0000 C CNN
F 2 "" H 9730 4940 50  0001 C CNN
F 3 "http://www.ti.com/lit/ds/symlink/adc0831-n.pdf" H 9730 4940 50  0001 C CNN
	1    9730 4940
	1    0    0    -1  
$EndComp
$Comp
L Device:R R2
U 1 1 62B9C645
P 7830 5110
F 0 "R2" V 7620 5110 50  0001 C CNN
F 1 "10k" V 7830 5110 50  0000 C CNN
F 2 "" V 7760 5110 50  0001 C CNN
F 3 "~" H 7830 5110 50  0001 C CNN
	1    7830 5110
	0    1    1    0   
$EndComp
Connection ~ 7980 5110
$Comp
L Device:R R4
U 1 1 62B9C63F
P 8130 5110
F 0 "R4" V 7920 5110 50  0001 C CNN
F 1 "10k" V 8130 5110 50  0000 C CNN
F 2 "" V 8060 5110 50  0001 C CNN
F 3 "~" H 8130 5110 50  0001 C CNN
	1    8130 5110
	0    1    1    0   
$EndComp
$Comp
L power:GND #PWR02
U 1 1 62B9C639
P 7680 5110
F 0 "#PWR02" H 7680 4860 50  0001 C CNN
F 1 "GND" H 7685 4934 50  0000 C CNN
F 2 "" H 7680 5110 50  0001 C CNN
F 3 "" H 7680 5110 50  0001 C CNN
	1    7680 5110
	0    1    1    0   
$EndComp
Connection ~ 8280 5110
$Comp
L Device:R R6
U 1 1 62B9C633
P 8430 5110
F 0 "R6" V 8220 5110 50  0001 C CNN
F 1 "10k" V 8430 5100 50  0000 C CNN
F 2 "" V 8360 5110 50  0001 C CNN
F 3 "~" H 8430 5110 50  0001 C CNN
	1    8430 5110
	0    1    1    0   
$EndComp
Connection ~ 8580 5110
$Comp
L Device:R R8
U 1 1 62B9C62D
P 8730 5110
F 0 "R8" V 8520 5110 50  0001 C CNN
F 1 "10k" V 8730 5110 50  0000 C CNN
F 2 "" V 8660 5110 50  0001 C CNN
F 3 "~" H 8730 5110 50  0001 C CNN
	1    8730 5110
	0    1    1    0   
$EndComp
Text Label 9730 4540 0    50   ~ 0
+5v
$Comp
L power:GND #PWR03
U 1 1 62B4CF8F
P 9730 5340
F 0 "#PWR03" H 9730 5090 50  0001 C CNN
F 1 "GND" H 9840 5340 50  0000 C CNN
F 2 "" H 9730 5340 50  0001 C CNN
F 3 "" H 9730 5340 50  0001 C CNN
	1    9730 5340
	1    0    0    -1  
$EndComp
Text Notes 7750 5890 0    50   ~ 0
Dual 5-Way Selector/ADC  Unit\nOutput Voltage is a mutliplier of Vi : 3/4, 2,3, 1/2, 1/3, 1/4 
Wire Notes Line
	10480 5700 10480 4250
Text Label 8880 4440 0    50   ~ 0
+5v
Text Label 8880 5110 0    50   ~ 0
+5v
Text Notes 5550 5750 0    50   ~ 0
Dual Rotary Encoder w/Switch \n* there are 7 units,\n* each unit uses 5 MCU Input pins, \n   of which 2 are interrupt drivers
Wire Notes Line
	5320 4400 5320 5420
Wire Notes Line
	5330 5420 6810 5420
Wire Notes Line
	6810 5420 6810 4400
Wire Notes Line
	6800 4400 5320 4400
Wire Wire Line
	8280 4990 9130 4990
Wire Wire Line
	8187 4592 8186 4592
Wire Wire Line
	7980 4440 7980 4592
Wire Wire Line
	8280 4589 8280 4590
Wire Wire Line
	8280 4440 8280 4589
Connection ~ 8280 4589
$Comp
L Switch_Bob:SW_SP5T SW?
U 1 1 64695953
P 8280 4789
F 0 "SW?" V 8329 4606 50  0000 R CNN
F 1 "SW_SP5T" V 8236 4606 50  0000 R CNN
F 2 "" H 7655 4964 50  0001 C CNN
F 3 "~" H 7655 4964 50  0001 C CNN
	1    8280 4789
	0    -1   -1   0   
$EndComp
Wire Wire Line
	8374 4584 8577 4584
Wire Wire Line
	8577 4584 8577 4440
Connection ~ 8576 4440
Connection ~ 8372 4584
Connection ~ 8186 4592
Wire Wire Line
	8186 4592 7980 4592
$Comp
L Switch_Bob:SW_SP5T SW?
U 1 1 646BB32A
P 8279 5460
F 0 "SW?" V 8328 5277 50  0000 R CNN
F 1 "SW_SP5T" V 8235 5277 50  0000 R CNN
F 2 "" H 7654 5635 50  0001 C CNN
F 3 "~" H 7654 5635 50  0001 C CNN
	1    8279 5460
	0    -1   -1   0   
$EndComp
Connection ~ 8377 5259
Connection ~ 8184 5262
Connection ~ 8280 5658
Connection ~ 8279 4998
$EndSCHEMATC
