EESchema Schematic File Version 4
EELAYER 26 0
EELAYER END
$Descr A4 11693 8268
encoding utf-8
Sheet 1 1
Title ""
Date ""
Rev ""
Comp ""
Comment1 ""
Comment2 ""
Comment3 ""
Comment4 ""
$EndDescr
$Comp
L AD75019JP:AD75019JP U?
U 1 1 5B449108
P 4100 1730
F 0 "U?" H 5300 2123 60  0001 C CNN
F 1 "AD75019JP" H 5300 2013 60  0000 C CNN
F 2 "P_44A" H 4100 1730 60  0001 C CNN
F 3 "" H 4100 1730 60  0000 C CNN
	1    4100 1730
	1    0    0    -1  
$EndComp
NoConn ~ 6500 3930
NoConn ~ 6500 4030
NoConn ~ 6500 4130
NoConn ~ 6500 4230
$Comp
L pspice:DIODE D?
U 1 1 5B4492BB
P 3190 4130
F 0 "D?" V 3143 4260 50  0001 L CNN
F 1 "1N5818" V 3190 4260 50  0000 L CNN
F 2 "" H 3190 4130 50  0001 C CNN
F 3 "" H 3190 4130 50  0001 C CNN
	1    3190 4130
	0    1    1    0   
$EndComp
$Comp
L Device:C C?
U 1 1 5B44951B
P 3190 3780
F 0 "C?" H 3305 3827 50  0001 L CNN
F 1 "100nF" H 3305 3780 50  0000 L CNN
F 2 "" H 3228 3630 50  0001 C CNN
F 3 "~" H 3190 3780 50  0001 C CNN
	1    3190 3780
	1    0    0    -1  
$EndComp
Text Notes 6650 4070 0    50   ~ 10
These pins MUST NOT BE CONNECTED to anything!!
$Comp
L power:GND #PWR?
U 1 1 5B4495DA
P 6500 4430
F 0 "#PWR?" H 6500 4180 50  0001 C CNN
F 1 "GND" H 6505 4254 50  0000 C CNN
F 2 "" H 6500 4430 50  0001 C CNN
F 3 "" H 6500 4430 50  0001 C CNN
	1    6500 4430
	1    0    0    -1  
$EndComp
$Comp
L power:GND #PWR?
U 1 1 5B4495F8
P 3990 4830
F 0 "#PWR?" H 3990 4580 50  0001 C CNN
F 1 "GND" H 3995 4654 50  0000 C CNN
F 2 "" H 3990 4830 50  0001 C CNN
F 3 "" H 3990 4830 50  0001 C CNN
	1    3990 4830
	1    0    0    -1  
$EndComp
$Comp
L power:GND #PWR?
U 1 1 5B44960F
P 3190 4630
F 0 "#PWR?" H 3190 4380 50  0001 C CNN
F 1 "GND" H 3195 4454 50  0000 C CNN
F 2 "" H 3190 4630 50  0001 C CNN
F 3 "" H 3190 4630 50  0001 C CNN
	1    3190 4630
	1    0    0    -1  
$EndComp
$Comp
L power:GND #PWR?
U 1 1 5B449626
P 3190 3650
F 0 "#PWR?" H 3190 3400 50  0001 C CNN
F 1 "GND" H 3195 3474 50  0000 C CNN
F 2 "" H 3190 3650 50  0001 C CNN
F 3 "" H 3190 3650 50  0001 C CNN
	1    3190 3650
	-1   0    0    1   
$EndComp
$Comp
L power:-12V #PWR?
U 1 1 5B44973F
P 3830 4430
F 0 "#PWR?" H 3830 4530 50  0001 C CNN
F 1 "-12V" V 3845 4560 50  0000 L CNN
F 2 "" H 3830 4430 50  0001 C CNN
F 3 "" H 3830 4430 50  0001 C CNN
	1    3830 4430
	0    -1   -1   0   
$EndComp
$Comp
L power:+12V #PWR?
U 1 1 5B44977A
P 3190 4330
F 0 "#PWR?" H 3190 4180 50  0001 C CNN
F 1 "+12V" V 3205 4460 50  0000 L CNN
F 2 "" H 3190 4330 50  0001 C CNN
F 3 "" H 3190 4330 50  0001 C CNN
	1    3190 4330
	0    -1   -1   0   
$EndComp
$Comp
L power:+5V #PWR?
U 1 1 5B4497B5
P 3190 3930
F 0 "#PWR?" H 3190 3780 50  0001 C CNN
F 1 "+5V" V 3205 4060 50  0000 L CNN
F 2 "" H 3190 3930 50  0001 C CNN
F 3 "" H 3190 3930 50  0001 C CNN
	1    3190 3930
	0    -1   -1   0   
$EndComp
$Comp
L pspice:DIODE D?
U 1 1 5B44990E
P 3830 4630
F 0 "D?" V 3783 4760 50  0001 L CNN
F 1 "1N5818" V 3840 4260 50  0000 L CNN
F 2 "" H 3830 4630 50  0001 C CNN
F 3 "" H 3830 4630 50  0001 C CNN
	1    3830 4630
	0    1    1    0   
$EndComp
$Comp
L Device:C C?
U 1 1 5B449948
P 3190 4480
F 0 "C?" H 3305 4527 50  0001 L CNN
F 1 "100nF" H 2890 4360 50  0000 L CNN
F 2 "" H 3228 4330 50  0001 C CNN
F 3 "~" H 3190 4480 50  0001 C CNN
	1    3190 4480
	1    0    0    -1  
$EndComp
$Comp
L Device:C C?
U 1 1 5B449972
P 4100 4580
F 0 "C?" H 4215 4627 50  0001 L CNN
F 1 "100nF" H 4160 4480 50  0000 L CNN
F 2 "" H 4138 4430 50  0001 C CNN
F 3 "~" H 4100 4580 50  0001 C CNN
	1    4100 4580
	1    0    0    -1  
$EndComp
Connection ~ 3190 3930
Connection ~ 3190 4330
Wire Wire Line
	3830 4430 4100 4430
Connection ~ 4100 4430
Wire Wire Line
	3830 4830 3990 4830
Wire Wire Line
	4100 4730 4100 4830
Wire Wire Line
	4100 4830 3990 4830
Connection ~ 3990 4830
Connection ~ 3830 4430
Wire Wire Line
	3190 4330 4100 4330
Wire Wire Line
	4100 3930 4100 4230
Wire Wire Line
	3190 3930 4100 3930
Text Label 4100 1730 2    50   ~ 0
SPI_Latch
Text Label 4100 1830 2    50   ~ 0
SPI_CLCK
Text Label 4100 2030 2    50   ~ 0
SPI_DATA
Text Notes 6500 2030 0    50   ~ 10
This pin can be used for debugging, or left NOT CONNECTED.
$EndSCHEMATC
