0
SECTION
2
HEADER
9
$INSUNITS
70
4
9
$ACADVER
1
AC1014
9
$HANDSEED
5
FFFF
0
ENDSEC
0
SECTION
2
TABLES
0
TABLE
2
VPORT
5
8
100
AcDbSymbolTable
0
ENDTAB
0
TABLE
2
LTYPE
5
5
100
AcDbSymbolTable
0
LTYPE
5
14
100
AcDbSymbolTableRecord
100
AcDbLinetypeTableRecord
2
BYBLOCK
70
0
0
LTYPE
5
15
100
AcDbSymbolTableRecord
100
AcDbLinetypeTableRecord
2
BYLAYER
70
0
0
ENDTAB
0
TABLE
2
LAYER
5
2
100
AcDbSymbolTable
70
2
0
LAYER
5
50
100
AcDbSymbolTableRecord
100
AcDbLayerTableRecord
2
0
70
0
6
CONTINUOUS
0
ENDTAB
0
TABLE
2
STYLE
5
3
100
AcDbSymbolTable
70
1
0
STYLE
5
11
100
AcDbSymbolTableRecord
100
AcDbTextStyleTableRecord
2
STANDARD
70
0
0
ENDTAB
0
TABLE
2
VIEW
5
6
100
AcDbSymbolTable
70
0
0
ENDTAB
0
TABLE
2
UCS
5
7
100
AcDbSymbolTable
70
0
0
ENDTAB
0
TABLE
2
APPID
5
9
100
AcDbSymbolTable
70
2
0
APPID
5
12
100
AcDbSymbolTableRecord
100
AcDbRegAppTableRecord
2
ACAD
70
0
0
ENDTAB
0
TABLE
2
DIMSTYLE
5
A
100
AcDbSymbolTable
70
1
0
ENDTAB
0
TABLE
2
BLOCK_RECORD
5
1
100
AcDbSymbolTable
70
1
0
BLOCK_RECORD
5
1F
100
AcDbSymbolTableRecord
100
AcDbBlockTableRecord
2
*MODEL_SPACE
0
BLOCK_RECORD
5
1B
100
AcDbSymbolTableRecord
100
AcDbBlockTableRecord
2
*PAPER_SPACE
0
ENDTAB
0
ENDSEC
0
SECTION
2
BLOCKS
0
BLOCK
5
20
100
AcDbEntity
100
AcDbBlockBegin
2
*MODEL_SPACE
0
ENDBLK
5
21
100
AcDbEntity
100
AcDbBlockEnd
0
BLOCK
5
1C
100
AcDbEntity
100
AcDbBlockBegin
2
*PAPER_SPACE
0
ENDBLK
5
1D
100
AcDbEntity
100
AcDbBlockEnd
0
ENDSEC
0
SECTION
2
ENTITIES
0
ELLIPSE
5
100
100
AcDbEntity
8
0
100
AcDbEllipse
10
351.98769692600257
20
717.76121240677026
30
0
11
-2.2686229868629839
21
0.85878634450014024
31
0.0
40
0.41224709764799528
41
0
42
6.2831853071795862
0
CIRCLE
5
101
100
AcDbEntity
8
0
100
AcDbCircle
10
373.45250103261992
20
674.09104305109577
30
0
40
1.1499999999999488
210
0
220
0
230
1
0
CIRCLE
5
102
100
AcDbEntity
8
0
100
AcDbCircle
10
441.01815914095363
20
790.64372462904726
30
0
40
1.1500000000000199
210
0
220
0
230
1
0
CIRCLE
5
103
100
AcDbEntity
8
0
100
AcDbCircle
10
373.45250103261992
20
708.09104305109577
30
0
40
1.1500000000000199
210
0
220
0
230
1
0
CIRCLE
5
104
100
AcDbEntity
8
0
100
AcDbCircle
10
287.42959364744189
20
673.59104305109565
30
0
40
1.1500000000000199
210
0
220
0
230
1
0
CIRCLE
5
105
100
AcDbEntity
8
0
100
AcDbCircle
10
291.01815914095357
20
790.64372462904726
30
0
40
1.1500000000000199
210
0
220
0
230
1
0
CIRCLE
5
106
100
AcDbEntity
8
0
100
AcDbCircle
10
373.45250103261992
20
742.09104305109577
30
0
40
1.1499999999999488
210
0
220
0
230
1
0
CIRCLE
5
107
100
AcDbEntity
8
0
100
AcDbCircle
10
287.42959364744189
20
742.59104305109577
30
0
40
1.1500000000000199
210
0
220
0
230
1
0
LWPOLYLINE
5
108
100
AcDbEntity
8
0
100
AcDbPolyline
90
10
70
1
43
0.0
10
330.49220964152397
20
738.83862568512598
10
331.04666028151934
20
738.05564236002238
42
-0.20833621647300421
10
334.08024285734484
20
723.49203819496506
10
326.98295527881555
20
689.43163184567538
42
-0.31310847783542001
10
311.5616197948425
20
674.81883017112818
10
301.89351671286977
20
673.34175439364981
42
-0.45934810954623767
10
287.2770629742131
20
685.8947308150083
10
287.27706297421298
20
710.57733747840552
42
-0.15332948615449957
10
290.62114424865109
20
721.22585080493718
10
302.8207275166817
20
738.73374456164186
42
-0.51961212345251773
0
LWPOLYLINE
5
109
100
AcDbEntity
8
0
100
AcDbPolyline
90
12
70
1
43
0.0
10
209.23918235388771
20
696.23042354043935
10
201.45571727668934
20
674.35623747981356
42
-0.84217496905958034
10
177.17904971465458
20
678.54671491482225
10
177.1790497146547
20
742.62486529050705
42
-0.84183823635238464
10
201.4524108893782
20
746.8246232179963
10
207.58382156781775
20
729.63617719939043
10
266.75346493589075
20
772.03092167445323
42
-0.41421356237310153
10
272.9849190163506
20
771.00170253203476
10
276.60705888321706
20
765.94634185453754
42
-0.41421356237310214
10
275.57783974079871
20
759.71488777407762
10
210.31700592614692
20
712.95583674193028
10
210.31700592614695
20
702.47457120532385
42
-0.085673218511407426
0
LWPOLYLINE
5
110
100
AcDbEntity
8
0
100
AcDbPolyline
90
4
70
1
43
0.0
10
310.01815914095357
20
804.64372462904703
10
422.01815914095363
20
804.64372462904726
42
-0.99999999999999989
10
422.01815914095363
20
776.64372462904703
10
310.0181591409534
20
776.64372462904726
42
-0.99999999999999989
0
LINE
5
111
100
AcDbEntity
8
0
100
AcDbLine
10
164.34910779233195
20
681.5208255330956
30
0
11
92.798698613648043
21
681.5208255330956
31
0
0
SPLINE
5
112
100
AcDbEntity
8
0
100
AcDbSpline
70
0
71
3
72
14
73
10
74
0
42
0.000000001
43
0.0000000001
44
0.0000000001
40
0
40
0
40
0
40
0
40
0.46877336806431713
40
0.46877336806431713
40
0.93754673612863459
40
0.93754673612863459
40
1.2162003005764777
40
1.2162003005764777
40
1.4152835929507073
40
1.4152835929507073
40
1.4152835929507073
40
1.4152835929507073
10
103.44163509880595
20
673.51547279931333
30
0
10
102.9239794954813
20
674.98981412673743
30
0
10
102.12330131614648
20
676.34895029721508
30
0
10
100.04603535310325
20
678.68380892514051
30
0
10
98.789307364198976
20
679.63720886150941
30
0
10
96.550589415907083
20
680.73052082656545
30
0
10
95.671446913754608
20
681.03984587446303
30
0
10
94.118192156363278
20
681.39101018617703
30
0
10
93.460338159686032
20
681.48330297177381
30
0
10
92.798698613648043
20
681.5208255330956
30
0
0
SPLINE
5
113
100
AcDbEntity
8
0
100
AcDbSpline
70
4
71
5
72
70
73
64
74
0
42
0.000000001
43
0.0000000001
44
0.0000000001
40
0.021435219695463831
40
0.021435219695463831
40
0.021435219695463831
40
0.021435219695463831
40
0.021435219695463831
40
0.021435219695463831
40
0.033333333333333333
40
0.050000000000000003
40
0.066666666666666666
40
0.083333333333333329
40
0.099999999999999992
40
0.11666666666666665
40
0.13333333333333333
40
0.14999999999999999
40
0.16666666666666666
40
0.18333333333333332
40
0.19999999999999998
40
0.21666666666666665
40
0.23333333333333331
40
0.24999999999999997
40
0.26666666666666666
40
0.28333333333333333
40
0.29999999999999999
40
0.31666666666666665
40
0.33333333333333331
40
0.34999999999999998
40
0.36666666666666664
40
0.3833333333333333
40
0.39999999999999997
40
0.41666666666666663
40
0.43333333333333329
40
0.44999999999999996
40
0.46666666666666662
40
0.48333333333333328
40
0.49999999999999994
40
0.51666666666666661
40
0.53333333333333333
40
0.55000000000000004
40
0.56666666666666676
40
0.58333333333333348
40
0.6000000000000002
40
0.61666666666666692
40
0.63333333333333364
40
0.65000000000000036
40
0.66666666666666707
40
0.68333333333333379
40
0.70000000000000051
40
0.71666666666666723
40
0.73333333333333395
40
0.75000000000000067
40
0.76666666666666738
40
0.7833333333333341
40
0.80000000000000082
40
0.81666666666666754
40
0.83333333333333426
40
0.85000000000000098
40
0.8666666666666677
40
0.88333333333333441
40
0.90000000000000113
40
0.91666666666666785
40
0.93333333333333457
40
0.95000000000000129
40
0.96666666666666801
40
0.98333333333333472
40
0.99400296217821449
40
0.99400296217821449
40
0.99400296217821449
40
0.99400296217821449
40
0.99400296217821449
40
0.99400296217821449
41
1
41
1
41
1
41
1
41
1
41
1
41
1
41
1
41
1
41
1
41
1
41
1
41
1
41
1
41
1
41
1
41
1
41
1
41
1
41
1
41
1
41
1
41
1
41
1
41
1
41
1
41
1
41
1
41
1
41
1
41
1
41
1
41
1
41
1
41
1
41
1
41
1
41
1
41
1
41
1
41
1
41
1
41
1
41
1
41
1
41
1
41
1
41
1
41
1
41
1
41
1
41
1
41
1
41
1
41
1
41
1
41
1
41
1
41
1
41
1
41
1
41
1
41
1
41
1
10
103.44163509880582
20
673.51547279931356
30
0
10
103.92963242795051
20
672.12560156946529
30
0
10
105.08721747650826
20
668.47789145592424
30
0
10
106.77360666939984
20
661.57431140725248
30
0
10
107.96928961340402
20
650.14462058286222
30
0
10
100.31887905062669
20
636.24780779209732
30
0
10
83.976258376216734
20
622.23859754791658
30
0
10
67.528267606255781
20
607.4851941142889
30
0
10
60.431653553640132
20
590.79065384161458
30
0
10
68.816388508423231
20
576.06893032796097
30
0
10
90.602385368403162
20
569.95517848890597
30
0
10
118.9873817924471
20
571.25103066490385
30
0
10
145.90141256646274
20
576.98335144037969
30
0
10
165.40269034345192
20
583.06968973256721
30
0
10
177.15475311550361
20
587.20306529239269
30
0
10
190.13336972747524
20
591.00865519096965
30
0
10
206.31568494653689
20
593.80623560686661
30
0
10
225.5275875918345
20
594.48030994761223
30
0
10
245.86765582856768
20
591.72769888101357
30
0
10
266.07376906061074
20
585.02936886911436
30
0
10
286.37346149412133
20
575.01164671840422
30
0
10
307.72022503640125
20
563.09621402610514
30
0
10
331.30992086553198
20
551.2543499840333
30
0
10
357.92143803973437
20
541.74601369214804
30
0
10
387.49062639707108
20
536.81228130487227
30
0
10
418.21410682585747
20
538.5129740625099
30
0
10
446.70766345332459
20
548.20293619070105
30
0
10
471.33991846205157
20
565.78026466512858
30
0
10
491.12745269258687
20
590.24983611554399
30
0
10
505.9256866000577
20
619.88164584073365
30
0
10
516.07765055216976
20
652.56372214473163
30
0
10
522.32262985078137
20
686.00320949918023
30
0
10
525.53222810614432
20
718.14981145648972
30
0
10
526.67509696582908
20
747.13159736408886
30
0
10
526.05592811537167
20
772.97125237465116
30
0
10
523.36821755066887
20
796.70755359060422
30
0
10
517.9460918522368
20
819.56163316142135
30
0
10
508.7255287713715
20
841.66121502468684
30
0
10
494.79613510884371
20
861.96455980896076
30
0
10
474.60513575445816
20
875.29252077061028
30
0
10
448.54331129928141
20
876.68305941725271
30
0
10
420.92794523358384
20
868.71827445786198
30
0
10
396.70268842283889
20
856.11105115037344
30
0
10
378.87280325816437
20
843.96265124305103
30
0
10
368.01404457110004
20
835.96597618797387
30
0
10
355.11711623968233
20
829.04545484325536
30
0
10
336.91346083843371
20
821.67394559479078
30
0
10
316.85019337204767
20
815.80131874861854
30
0
10
298.43326331760335
20
813.78173968881674
30
0
10
281.86503158414723
20
817.60107757408502
30
0
10
258.55784152451787
20
826.60314042218852
30
0
10
229.24599954264391
20
836.36482049944846
30
0
10
198.08581986044589
20
841.44436843788651
30
0
10
171.52947757343719
20
837.38103211696944
30
0
10
155.17309936102072
20
822.65253004690635
30
0
10
151.86415127126713
20
801.42404469186567
30
0
10
158.28018033964864
20
784.54549313121652
30
0
10
165.97899222723157
20
770.30344696889517
30
0
10
167.14008699389785
20
756.0401536893329
30
0
10
158.62045067886447
20
742.11786479385808
30
0
10
149.76612263070211
20
738.49925846522888
30
0
10
144.91157892611571
20
737.74410330580452
30
0
10
142.89800720266521
20
737.56313756952875
30
0
10
142.27803054605153
20
737.52082553309606
30
0
0
LINE
5
114
100
AcDbEntity
8
0
100
AcDbLine
10
142.27803054605155
20
737.52082553309606
30
0
11
164.34910779233195
21
737.52082553309549
31
0
0
ARC
5
115
100
AcDbEntity
8
0
100
AcDbCircle
10
164.34910779233195
20
733.52082553309538
30
0
40
3.9999999999999858
210
0
220
-0
230
1
100
AcDbArc
50
0
51
90
0
LINE
5
116
100
AcDbEntity
8
0
100
AcDbLine
10
168.34910779233195
20
733.52082553309538
30
0
11
168.34910779233189
21
685.5208255330956
31
0
0
ARC
5
117
100
AcDbEntity
8
0
100
AcDbCircle
10
164.34910779233195
20
685.5208255330956
30
0
40
4.0000000000000568
210
-0
220
0
230
1
100
AcDbArc
50
-90
51
0
0
LINE
5
118
100
AcDbEntity
8
0
100
AcDbLine
10
98.242831650874791
20
737.46932432298149
30
0
11
91.24283165087482
21
730.46932432298149
31
0
0
LINE
5
119
100
AcDbEntity
8
0
100
AcDbLine
10
141.0780359059502
20
737.46932432298149
30
0
11
98.242831650874791
21
737.46932432298149
31
0
0
CIRCLE
5
120
100
AcDbEntity
8
0
100
AcDbCircle
10
124.9806788240615
20
710.65729196498842
30
0
40
3.500000000000032
210
0
220
0
230
1
0
CIRCLE
5
121
100
AcDbEntity
8
0
100
AcDbCircle
10
149.24283165087479
20
727.46932432298149
30
0
40
2.5999999999999979
210
0
220
0
230
1
0
CIRCLE
5
122
100
AcDbEntity
8
0
100
AcDbCircle
10
98.242831650874791
20
689.46932432298149
30
0
40
2.5999999999999979
210
0
220
0
230
1
0
CIRCLE
5
123
100
AcDbEntity
8
0
100
AcDbCircle
10
149.24283165087479
20
689.46932432298149
30
0
40
2.5999999999999979
210
0
220
0
230
1
0
CIRCLE
5
124
100
AcDbEntity
8
0
100
AcDbCircle
10
98.242831650874791
20
727.46932432298149
30
0
40
2.5999999999999979
210
0
220
0
230
1
0
LINE
5
125
100
AcDbEntity
8
0
100
AcDbLine
10
91.242831650874763
20
681.53220985975895
30
0
11
92.003979283135649
21
681.53952221663258
31
0
0
LINE
5
126
100
AcDbEntity
8
0
100
AcDbLine
10
91.24283165087482
20
730.46932432298149
30
0
11
91.242831650874763
21
681.53220985975895
31
0
0
SPLINE
5
127
100
AcDbEntity
8
0
100
AcDbSpline
70
4
71
5
72
70
73
64
74
0
42
0.000000001
43
0.0000000001
44
0.0000000001
40
0.021435219695463831
40
0.021435219695463831
40
0.021435219695463831
40
0.021435219695463831
40
0.021435219695463831
40
0.021435219695463831
40
0.033333333333333333
40
0.050000000000000003
40
0.066666666666666666
40
0.083333333333333329
40
0.099999999999999992
40
0.11666666666666665
40
0.13333333333333333
40
0.14999999999999999
40
0.16666666666666666
40
0.18333333333333332
40
0.19999999999999998
40
0.21666666666666665
40
0.23333333333333331
40
0.24999999999999997
40
0.26666666666666666
40
0.28333333333333333
40
0.29999999999999999
40
0.31666666666666665
40
0.33333333333333331
40
0.34999999999999998
40
0.36666666666666664
40
0.3833333333333333
40
0.39999999999999997
40
0.41666666666666663
40
0.43333333333333329
40
0.44999999999999996
40
0.46666666666666662
40
0.48333333333333328
40
0.49999999999999994
40
0.51666666666666661
40
0.53333333333333333
40
0.55000000000000004
40
0.56666666666666676
40
0.58333333333333348
40
0.6000000000000002
40
0.61666666666666692
40
0.63333333333333364
40
0.65000000000000036
40
0.66666666666666707
40
0.68333333333333379
40
0.70000000000000051
40
0.71666666666666723
40
0.73333333333333395
40
0.75000000000000067
40
0.76666666666666738
40
0.7833333333333341
40
0.80000000000000082
40
0.81666666666666754
40
0.83333333333333426
40
0.85000000000000098
40
0.8666666666666677
40
0.88333333333333441
40
0.90000000000000113
40
0.91666666666666785
40
0.93333333333333457
40
0.95000000000000129
40
0.96666666666666801
40
0.98333333333333472
40
1
40
1
40
1
40
1
40
1
40
1
41
1
41
1
41
1
41
1
41
1
41
1
41
1
41
1
41
1
41
1
41
1
41
1
41
1
41
1
41
1
41
1
41
1
41
1
41
1
41
1
41
1
41
1
41
1
41
1
41
1
41
1
41
1
41
1
41
1
41
1
41
1
41
1
41
1
41
1
41
1
41
1
41
1
41
1
41
1
41
1
41
1
41
1
41
1
41
1
41
1
41
1
41
1
41
1
41
1
41
1
41
1
41
1
41
1
41
1
41
1
41
1
41
1
41
1
41
1
41
1
41
1
41
1
41
1
41
1
10
103.44163509880582
20
673.51547279931356
30
0
10
103.92963242795051
20
672.12560156946529
30
0
10
105.08721747650826
20
668.47789145592424
30
0
10
106.77360666939984
20
661.57431140725248
30
0
10
107.96928961340402
20
650.14462058286222
30
0
10
100.31887905062669
20
636.24780779209732
30
0
10
83.976258376216734
20
622.23859754791658
30
0
10
67.528267606255781
20
607.4851941142889
30
0
10
60.431653553640132
20
590.79065384161458
30
0
10
68.816388508423231
20
576.06893032796097
30
0
10
90.602385368403162
20
569.95517848890597
30
0
10
118.9873817924471
20
571.25103066490385
30
0
10
145.90141256646274
20
576.98335144037969
30
0
10
165.40269034345192
20
583.06968973256721
30
0
10
177.15475311550361
20
587.20306529239269
30
0
10
190.13336972747524
20
591.00865519096965
30
0
10
206.31568494653689
20
593.80623560686661
30
0
10
225.5275875918345
20
594.48030994761223
30
0
10
245.86765582856768
20
591.72769888101357
30
0
10
266.07376906061074
20
585.02936886911436
30
0
10
286.37346149412133
20
575.01164671840422
30
0
10
307.72022503640125
20
563.09621402610514
30
0
10
331.30992086553198
20
551.2543499840333
30
0
10
357.92143803973437
20
541.74601369214804
30
0
10
387.49062639707108
20
536.81228130487227
30
0
10
418.21410682585747
20
538.5129740625099
30
0
10
446.70766345332459
20
548.20293619070105
30
0
10
471.33991846205157
20
565.78026466512858
30
0
10
491.12745269258687
20
590.24983611554399
30
0
10
505.9256866000577
20
619.88164584073365
30
0
10
516.07765055216976
20
652.56372214473163
30
0
10
522.32262985078137
20
686.00320949918023
30
0
10
525.53222810614432
20
718.14981145648972
30
0
10
526.67509696582908
20
747.13159736408886
30
0
10
526.05592811537167
20
772.97125237465116
30
0
10
523.36821755066887
20
796.70755359060422
30
0
10
517.9460918522368
20
819.56163316142135
30
0
10
508.7255287713715
20
841.66121502468684
30
0
10
494.79613510884371
20
861.96455980896076
30
0
10
474.60513575445816
20
875.29252077061028
30
0
10
448.54331129928141
20
876.68305941725271
30
0
10
420.92794523358384
20
868.71827445786198
30
0
10
396.70268842283889
20
856.11105115037344
30
0
10
378.87280325816437
20
843.96265124305103
30
0
10
368.01404457110004
20
835.96597618797387
30
0
10
355.11711623968233
20
829.04545484325536
30
0
10
336.91346083843371
20
821.67394559479078
30
0
10
316.85019337204767
20
815.80131874861854
30
0
10
298.43326331760335
20
813.78173968881674
30
0
10
281.86503158414723
20
817.60107757408502
30
0
10
258.55784152451787
20
826.60314042218852
30
0
10
229.24599954264391
20
836.36482049944846
30
0
10
198.08581986044589
20
841.44436843788651
30
0
10
171.52947757343719
20
837.38103211696944
30
0
10
155.17309936102072
20
822.65253004690635
30
0
10
151.86415127126713
20
801.42404469186567
30
0
10
158.28018033964864
20
784.54549313121652
30
0
10
165.97899222723157
20
770.30344696889517
30
0
10
167.14008699389785
20
756.0401536893329
30
0
10
157.95979605516993
20
741.03826184003515
30
0
10
147.99445721374661
20
737.85523773469788
30
0
10
143.02094097188484
20
737.53452279557087
30
0
10
141.43667024955738
20
737.46934108844175
30
0
10
141.0780359059502
20
737.46932432298149
30
0
0
SPLINE
5
128
100
AcDbEntity
8
0
100
AcDbSpline
70
0
71
3
72
14
73
10
74
0
42
0.000000001
43
0.0000000001
44
0.0000000001
40
0
40
0
40
0
40
0
40
0.46877336806431569
40
0.46877336806431569
40
0.93754673612863604
40
0.93754673612863604
40
1.2162003005764737
40
1.2162003005764737
40
1.4948538650243162
40
1.4948538650243162
40
1.4948538650243162
40
1.4948538650243162
10
92.003979283135649
20
681.53952221663258
30
0
10
93.566485072813379
20
681.55453323350628
30
0
10
95.116984440901177
20
681.26420861119072
30
0
10
98.019424413606174
20
680.10557109304261
30
0
10
99.343616110132288
20
679.24833540338977
30
0
10
101.133570335421
20
677.51534579686859
30
0
10
101.72363056837136
20
676.79395654976383
30
0
10
102.72549723795009
20
675.22957906692659
30
0
10
103.13392440351102
20
674.39186743708024
30
0
10
103.44163509880593
20
673.51547279931333
30
0
0
ENDSEC
0
SECTION
2
OBJECTS
0
DICTIONARY
5
C
100
AcDbDictionary
3
ACAD_GROUP
350
D
3
ACAD_MLINESTYLE
350
17
0
DICTIONARY
5
D
100
AcDbDictionary
0
DICTIONARY
5
1A
330
C
100
AcDbDictionary
0
DICTIONARY
5
17
100
AcDbDictionary
0
ENDSEC
0
EOF
